Pers_No,EmployeeID,Full_Name,TERAKHIR,Periode,GRADE,
60810023,6081087K3,RAKHMAT MIHARJA,2013-07-01,2016-1,POT,NAIK GRADE
60810027,6081122K3,DJAMINGAN,2013-07-01,2016-1,POT,NAIK GRADE
60810028,6081126K3,ISKANDARSYAH,2016-01-01,2016-1,OPT,
60810031,6081140K3,BUNYAMIN,2014-01-01,2016-1,POT,
60810039,6081179K3,DARMINI,2016-01-01,2016-1,POT,
60810042,6081198K3,M. TUSNI,2015-01-01,2016-1,POT,
60810057,6081397K3,WILSON SIMATUPANG,2014-07-01,2016-1,POT,
60820098,6082727K3,MOH. THOYIB,2015-01-01,2016-1,POT,
60820099,6082733K3,TAMIN JONNER S.,2013-07-01,2016-1,POT,NAIK GRADE
60820101,6082736K3,DARIP HINDRIAN,2015-07-01,2016-1,OPT,
60830013,6083022K3,WIGATI SETIANI,2016-01-01,2016-1,POT,
60830039,6083065P2B,DEDY BACHTIAR,2014-01-01,2016-1,POT,
60830083,6083369K3,SUGENG WARTONO,2016-01-01,2016-1,POT,
60840012,6084044P2B,THEODORUS SUKIRNO,2014-07-01,2016-1,POT,
60840052,6084195K3,SUYANTO,2014-01-01,2016-1,POT,
60840062,6084247K3,HERMAN SANY,2013-07-01,2016-1,OPT,NAIK GRADE
60840086,6084633K3,AMIRUDIN M. DARDAK,2014-01-01,2016-1,POT,
60840088,6084653K3,KUSUMA PUTRA,2013-07-01,2016-1,POT,NAIK GRADE
60840089,6084654K3,ROCHMAT,2016-01-01,2016-1,POT,
60850022,6085076P2B,SUPRIYADI YANUAR,2014-01-01,2016-1,POT,
60850045,6085189K3,SETYO PRIYONO,2014-07-01,2016-1,POT,
60850061,6085320K3,WILLIAM WESTREENEN,2015-01-01,2016-1,POT,
60850078,6085572K3,EDI SUGIYARSO,2015-01-01,2016-1,POT,
60890007,6089058K3,CARSITA,2014-01-01,2016-1,POT,
61810009,6181118K3,SAMIADI,2015-07-01,2016-1,POT,
61810013,6181149K3,KURNIANTO,2016-01-01,2016-1,POT,
61810016,6181191K3,UJANG ACHMAD SUNJANA,2013-07-01,2016-1,OPT,NAIK GRADE
61810018,6181195K3,BUDIANA,2014-07-01,2016-1,POT,
61810019,6181220K3,SUWARNI,2015-07-01,2016-1,POT,
61820088,6182724K3,TINI ROSTINI,2016-01-01,2016-1,POT,
61820092,6182755K3,MULYANA,2013-07-01,2016-1,POT,NAIK GRADE
61830007,6183022P2B,JOKO PRIYONO,2015-01-01,2016-1,OPT,
61830009,6183026K3,R. WINARSIH,2014-01-01,2016-1,POT,
61830011,6183027K3,RIMBA KUSUMAWATI,2016-01-01,2016-1,POT,
61830012,6183033K3,SLAMET SUTEDJO,2015-01-01,2016-1,POT,
61830014,6183041K3,SUWARNO TUKIMAN,2013-07-01,2016-1,POT,NAIK GRADE
61830015,6183042K3,LUTFIE,2016-01-01,2016-1,POT,
61830016,6183044K3,AGUS RIYANTO,2016-01-01,2016-1,POT,
61840020,6184055P2B,ABDUL HADI,2014-07-01,2016-1,POT,
61840049,6184174K3,HARRY SUYARSO,2015-07-01,2016-1,POT,
61840050,6184177K3,MUHARRUDIN,2016-01-01,2016-1,POT,
61840052,6184189K3,I GUSTI NGURAH ALIT,2016-01-01,2016-1,POT,
61840053,6184194K3,I KETUT WISNAWA,2016-01-01,2016-1,POT,
61840060,6184246K3,RUSLAN ABDUL GANI,2015-07-01,2016-1,OPT,
61840061,6184248K3,IRWAN ARIFIN,2014-07-01,2016-1,POT,
61840062,6184251K3,AHMAD YANI,2014-01-01,2016-1,POT,
61840073,6184484K3,M. THOLIB,2014-01-01,2016-1,OPT,
61840074,6184486K3,SUTARYONO,2014-07-01,2016-1,OPT,
61840075,6184488K3,SUYATNA,2014-01-01,2016-1,POT,
61840076,6184489K3,SUROTO,2015-01-01,2016-1,OPT,
61840083,6184597K3,WARYANTO,2013-07-01,2016-1,OPT,NAIK GRADE
61840087,6184625K3,ANDI JOHAN,2013-07-01,2016-1,POT,NAIK GRADE
61840089,6184655K3,BUDI RAHARDJO,2013-07-01,2016-1,POT,NAIK GRADE
61840090,6184660K3,HENDRO JUWONO,2013-07-01,2016-1,POT,NAIK GRADE
61840095,6184727K3,ANITA YOHANA S.,2016-01-01,2016-1,POT,
61850033,6185096P2B,BUDI SETYO PRANOTO,2014-01-01,2016-1,POT,
61850035,6185100P2B,ROHIM,2014-07-01,2016-1,POT,
61850075,6185274K3,IWAN SOPIANSYAH,2015-01-01,2016-1,POT,
61850082,6185303K3,BUDIWALUYO,2015-01-01,2016-1,POT,
61850107,6185453K3,ZULKIFLI,2014-01-01,2016-1,OPT,
61850108,6185454K3,TAUFIK A. KADIR,2015-01-01,2016-1,OPT,
61850110,6185515K3,KHAERUL AGIL,2014-07-01,2016-1,POT,
61850111,6185524K3,SUKARTO,2013-07-01,2016-1,OPT,NAIK GRADE
61850117,6185604K3,DARMAWANTO,2013-07-01,2016-1,POT,NAIK GRADE
62810005,6281137K3,SUKARI,2013-07-01,2016-1,OPT,NAIK GRADE
62810009,6281190K3,SETIA MULKAN SAPUTRA,2015-01-01,2016-1,OPT,
62810010,6281201K3,MAKMUN,2015-01-01,2016-1,POT,
62810012,6281204K3,ABIDIN,2015-01-01,2016-1,OPT,
62810013,6281205K3,JAMALUDIN ASWAN,2015-01-01,2016-1,POT,
62810014,6281206K3,HASAN BASRI ANWAR,2015-07-01,2016-1,SPO,
62810016,6281217K3,NURMAN,2015-01-01,2016-1,POT,
62810017,6281314K3,MUKHSIN,2014-01-01,2016-1,POT,
62810018,6281343K3,MINAN SAMIN,2015-01-01,2016-1,POT,
62820020,6282039K3,SATTO RIYANTO,2013-07-01,2016-1,OPT,NAIK GRADE
62820097,6282720K3,TUKIJAN,2014-07-01,2016-1,POT,
62820099,6282750K3,SAMAN,2015-01-01,2016-1,POT,
62827008,6282211Z,SRIANI RATNAWATI,2013-07-01,2016-1,POT,NAIK GRADE
62830005,6283020P2B,WARNO,2015-01-01,2016-1,OPT,
62830013,6283032P2B,HANNY TAKAPENTE,2016-01-01,2016-1,OPT,
62830018,6283047K3,TARSUN,2015-07-01,2016-1,POT,
62830032,6283123K3,DWI RAHMADI,2015-01-01,2016-1,POT,
62830059,6283207K3,SALIRO,2013-07-01,2016-1,POT,NAIK GRADE
62830060,6283220K3,YUDIS TIRAWAN,2014-07-01,2016-1,POT,NAIK LEVEL KOMPETENSI KHUSUS (SERTIFIKAT :07 JUNI)
62830063,6283225K3,UJANG BASRI,2014-01-01,2016-1,POT,
62830064,6283232K3,BUDIMAN SIAHAAN,2016-01-01,2016-1,OPT,
62830070,6283282K3,EDY SUHERMAN,2015-01-01,2016-1,POT,
62830075,6283395K3,SYARIFUDIN W.,2015-01-01,2016-1,POT,
62840015,6284029P2B,BADRUJAMAN,2014-01-01,2016-1,POT,
62840017,6284034P2B,MOH. ZEN,2016-01-01,2016-1,POT,
62840018,6284037P2B,EMAN SUHERMAN,2013-07-01,2016-1,POT,NAIK GRADE
62840021,6284043P2B,AGUS SUNARYA,2014-01-01,2016-1,POT,
62840026,6284059P2B,SUBIANTORO,2014-01-01,2016-1,OPT,
62840043,6284141K3,SARING,2015-07-01,2016-1,OPT,
62840050,6284168K3,PARDOMUAN SILABAN,2013-07-01,2016-1,POT,NAIK GRADE
62840059,6284193K3,R. NENNY IRIANI,2016-01-01,2016-1,POT,
62840061,6284196K3,NURMAYANTI,2016-01-01,2016-1,POT,
62840065,6284250K3,M. ZEIN,2014-07-01,2016-1,POT,
62840066,6284252K3,RAMDANI,2015-01-01,2016-1,OPT,
62840068,6284255K3,SUDIRJO,2016-01-01,2016-1,POT,
62840078,6284487K3,SAMSUDIN,2015-07-01,2016-1,OPT,
62840079,6284490K3,SUHARTO S.,2013-07-01,2016-1,POT,NAIK GRADE
62840089,6284603K3,RATNO YUWARSONO,2013-07-01,2016-1,OPT,NAIK GRADE
62840090,6284604K3,TASWO,2014-07-01,2016-1,OPT,
62840091,6284609K3,TONI KUSWORO,2015-01-01,2016-1,OPT,
62840094,6284629K3,WAWAN SUGRIWAN,2015-01-01,2016-1,OPT,
62840096,6284641K3,RUKMA,2014-07-01,2016-1,OPT,
62840100,6284758K3,WIYOTO,2015-07-01,2016-1,SPO,
62840101,6284763K3,ABDUL HAIS,2014-01-01,2016-1,POT,
62840104,6284875K3,MADRA'I,2015-01-01,2016-1,OPT,
62850024,6285045P2B,MISBACHUL MUNIR,2014-07-01,2016-1,POT,
62850088,6285213K3,BUDIYANTO,2014-07-01,2016-1,OPT,
62850089,6285217K3,MISTAN,2014-07-01,2016-1,POT,
62850094,6285232K3,HENY JUNAENI,2015-01-01,2016-1,POT,
62850104,6285262K3,SUPARDI,2013-07-01,2016-1,POT,NAIK GRADE
62850106,6285264K3,DIDI TOHARDI,2013-07-01,2016-1,POT,NAIK GRADE
62850122,6285316K3,DAMIN,2016-01-01,2016-1,SPO,
62850123,6285317K3,ARY PARYANTO,2015-07-01,2016-1,POT,
62850124,6285332K3,M. ARIFFUDIN,2015-01-01,2016-1,POT,
62850140,6285521K3,NADRIH RODJALI,2014-01-01,2016-1,POT,
62850142,6285527K3,SOGOL HADIWINARSO,2015-01-01,2016-1,POT,
62850147,6285618K3,SUGENG HARYONO (ALM),2015-07-01,2016-1,POT,
62850154,6285678K3,USMAN M. PANJI,2015-01-01,2016-1,POT,
62890005,6289046K3,EDDY SUDARSO,2015-01-01,2016-1,POT,
62890008,6289053K3,MUSLIH,2015-01-01,2016-1,POT,
62920000,6292006Z,IMAM SAMSIDI,2013-07-01,2016-1,POT,NAIK GRADE
63810005,6381288K3,HABUDIN,2014-01-01,2016-1,POT,
63810006,6381313K3,APIN,2014-01-01,2016-1,POT,
63820035,6382265K3,WASPIN SIHOMBING,2014-07-01,2016-1,POT,
63830003,6383012K3,OTO MURSALIM,2015-07-01,2016-1,POT,
63830006,6383029K3,IMAM SUGIRI,2014-07-01,2016-1,POT,
63830008,6383032K3,PAINO,2013-07-01,2016-1,SPO,NAIK GRADE
63830023,6383107K3,KHAIRULLOH,2016-01-01,2016-1,POT,
63830040,6383233K3,A. MUHAMMAD PRAYITNO,2015-01-01,2016-1,POT,
63830046,6383281K3,MARIAMAN,2014-01-01,2016-1,OPT,
63830050,6383359K3,BASUKI,2013-07-01,2016-1,OPT,NAIK GRADE
63840026,6384058P2B,DARYA SASMITA,2014-01-01,2016-1,OPT,
63840057,6384192K3,LILY SULASTRI,2013-07-01,2016-1,OPT,NAIK GRADE
63840060,6384249K3,AMIR UDDIN,2015-01-01,2016-1,SPO,
63840066,6384346K3,ENU SUHENDI,2014-07-01,2016-1,POT,
63840088,6384612K3,BAMBANG HERI PURWANTO,2014-01-01,2016-1,POT,
63840090,6384619K3,SUDRAJAT,2015-01-01,2016-1,OPT,NAIK LEVEL KOMPETENSI KHUSUS (SERTIFIKAT :07 JUNI)
63840092,6384626K3,DJONY VENTJE RUMIMPER,2014-01-01,2016-1,POT,
63840093,6384635K3,ANDI SUPARDI,2013-07-01,2016-1,OPT,NAIK GRADE
63840096,6384661K3,NANA HERNAWAN,2014-01-01,2016-1,POT,
63840097,6384662K3,LUKMAN,2014-01-01,2016-1,POT,
63840102,6384755K3,CECENG SEBASTIAN,2014-01-01,2016-1,OPT,
63850036,6385062P2B,M. BUANA BAHRI,2015-01-01,2016-1,POT,
63850041,6385070P2B,AGUS UTOMO,2014-01-01,2016-1,POT,
63850105,6385229K3,ASEP YUDIANA,2013-07-01,2016-1,POT,NAIK GRADE
63850111,6385241K3,E. SUPARMAN,2015-01-01,2016-1,POT,
63850131,6385310K3,EMAN SULAEMAN,2016-01-01,2016-1,POT,
63850132,6385312K3,SUTRISNO KADMA,2014-07-01,2016-1,POT,
63850133,6385314K3,WAHYUDI,2015-01-01,2016-1,POT,
63850152,6385480K3,DEDI MULYADI,2014-01-01,2016-1,POT,
63850153,6385506K3,BURHANUDIN,2014-01-01,2016-1,POT,
63850154,6385509K3,M. ZAINI,2013-07-01,2016-1,OPT,NAIK GRADE
63850159,6385542K3,USMAN,2015-01-01,2016-1,POT,
63850163,6385677K3,RAYMOND MANOPPO,2015-01-01,2016-1,POT,
63850165,6385690K3,DWI CIPTOROSO,2015-01-01,2016-1,POT,
63860009,6386071K3,WIYONO YUSUF,2013-07-01,2016-1,POT,NAIK GRADE
63860011,6386080K3,NENENG IRIANTI,2014-01-01,2016-1,POT,
63890008,6389054K3,RUSLANI,2014-01-01,2016-1,POT,
63920014,6392190K3,AHMAD,2013-07-01,2016-1,OPT,NAIK GRADE
63930018,6393154K3,KAMTO,2013-07-01,2016-1,POT,NAIK GRADE
64810001,6481315K3,ABDUL MAJIT,2014-01-01,2016-1,POT,
64820000,6482067P2B,SUNARDI,2014-01-01,2016-1,POT,
64820011,6482326K3,SAADI,2013-07-01,2016-1,POT,NAIK GRADE
64830013,6483224K3,AGUS HARYANTO,2013-07-01,2016-1,POT,NAIK GRADE
64840011,6484054P2B,EDI DANU SAPUTRA,2016-01-01,2016-1,POT,
64840047,6484608K3,EDI,2015-07-01,2016-1,OPT,
64840048,6484616K3,S. NAWAWI,2016-01-01,2016-1,OPT,
64840050,6484630K3,UJANG RUHIYAT,2014-01-01,2016-1,POT,
64840052,6484642K3,MUSRIFIN MADEK,2014-01-01,2016-1,POT,
64840054,6484664K3,TRI WIDODO,2013-07-01,2016-1,POT,NAIK GRADE
64840057,6484732K3,SUGENG BASUKI,2013-07-01,2016-1,POT,NAIK GRADE
64850030,6485054P2B,R. DJOKO SAPUTRO,2015-01-01,2016-1,POT,
64850048,6485085P2B,AGUS SULAIMAN,2016-01-01,2016-1,OPT,
64850050,6485089P2B,DIDI MURYADI,2014-01-01,2016-1,POT,
64850109,6485215K3,FAUJI,2014-07-01,2016-1,OPT,
64850110,6485219K3,FAHRUROJI,2013-07-01,2016-1,OPT,NAIK GRADE
64850131,6485311K3,SUKARDI,2015-07-01,2016-1,OPT,
64850133,6485321K3,EKO NURYANTO,2014-01-01,2016-1,OPT,NAIK GRADE
64850134,6485322K3,JUNAIDI,2013-07-01,2016-1,POT,NAIK GRADE
64850136,6485328K3,ARIEF WIBOWO,2016-01-01,2016-1,POT,
64850153,6485467K3,HARSONO,2015-01-01,2016-1,POT,
64850154,6485472K3,SUGIANTO,2014-07-01,2016-1,POT,
64850160,6485676K3,NUR INSAN,2013-07-01,2016-1,OPT,NAIK GRADE
64860008,6486069K3,ERWINDJANTO SRIPRIANTO SAPIN,2015-01-01,2016-1,POT,
64880001,6488007K3,IGNATIUS SATRIO BAKTI,2014-01-01,2016-1,POT,
64880002,6488009K3,ROKHMANI,2015-01-01,2016-1,SPO,
64880003,6488011K3,HOLILUDIN,2015-01-01,2016-1,OPT,
64880006,6488016K3,SUGANDI,2015-01-01,2016-1,POT,
64880011,6488039K3,ROHANI,2014-01-01,2016-1,OPT,
64890001,6489051K3,NAUMIN IRAWAN,2014-07-01,2016-1,OPT,
64890002,6489056K3,SUPARDAN,2014-01-01,2016-1,POT,
64890010,6489068K3,PALMEN SIHOMBING,2014-01-01,2016-1,POT,
64910014,6491089K3,TOING ABDUL KODIR,2015-01-01,2016-1,POT,
64920018,6492193K3,JAJA SUHARJA,2014-07-01,2016-1,POT,PENSIUN DINI 
65830000,6583069P2B,MISLAN,2014-01-01,2016-1,POT,
65840009,6584188K3,GIRI SUHARDI,2015-01-01,2016-1,POT,
65840022,6584605K3,BASUKI,2014-01-01,2016-1,OPT,
65840024,6584658K3,ROHMAIN SA'AIN,2013-07-01,2016-1,OPT,NAIK GRADE
65840026,6584863K3,SUHERMAN,2014-01-01,2016-1,POT,
65850011,6585047P2B,NURHASANAH,2015-01-01,2016-1,POT,
65850012,6585049P2B,NENA YUNAENA,2013-07-01,2016-1,POT,NAIK GRADE
65850015,6585052P2B,SUDARMAN,2014-07-01,2016-1,POT,
65850018,6585063P2B,DEDI LAZUARDI,2015-01-01,2016-1,OPT,
65850064,6585216K3,HAPID,2015-01-01,2016-1,OPT,
65850075,6585255K3,SUMINTA,2013-07-01,2016-1,POT,NAIK GRADE
65850081,6585280K3,MOH. APID,2015-01-01,2016-1,POT,
65850088,6585315K3,DULFATAH,2015-01-01,2016-1,OPT,NAIK LEVEL KOMPETENSI KHUSUS (SERTIFIKAT :07 JUNI)
65850100,6585477K3,AGUS HERIYANTO,2016-01-01,2016-1,POT,
65880023,6588057K3,MAHMUD,2015-01-01,2016-1,POT,
65880024,6588072K3,HARLY AGUSTINUS,2014-07-01,2016-1,POT,
66840008,6684762K3,AHMAD,2014-01-01,2016-1,OPT,
66840009,6684873K3,RAHMAT BAAN,2014-01-01,2016-1,POT,
66840010,6684874K3,ABDUL RODJIH,2014-01-01,2016-1,POT,
66850002,6685066P2B,SUHARTINAH,2014-01-01,2016-1,OPT,NAIK GRADE
66850021,6685455K3,RINI SUSANTI,2016-01-01,2016-1,POT,
66850027,6685673K3,NARSIN,2014-01-01,2016-1,OPT,
66850028,6685688K3,SUWANDI HARYONO,2015-01-01,2016-1,OPT,
66860007,6686073K3,HERU JOKO PURNOMO,2014-01-01,2016-1,OPT,
66880000,6688008K3,TARAM,2014-07-01,2016-1,OPT,
66880009,6688056K3,YUDI YUSTRIYADI,2016-01-01,2016-1,POT,
66880010,6688058K3,SUBACHWEH,2014-01-01,2016-1,SPO,
66890006,6689045K3,WAHYU HIDAYAT,2015-01-01,2016-1,POT,
66910022,6691074K3,AHMAD DJAELANI,2013-07-01,2016-1,POT,NAIK GRADE
67850003,6785282K3,EDI BAGINDO,2015-01-01,2016-1,OPT,
67860002,6786067K3,SUBHAN ARIEF,2014-07-01,2016-1,OPT,
67880000,6788002K3,SARWONO,2015-01-01,2016-1,POT,
67880002,6788012K3,A. SANUSI,2014-07-01,2016-1,POT,
67880009,6788055K3,JOKO SUTRISNO,2016-01-01,2016-1,SPO,
67890008,6789036K3,YAYAN SUYATNA,2014-07-01,2016-1,POT,
67890009,6789049K3,A. MULYADI,2016-01-01,2016-1,POT,
67890010,6789052K3,TRIHASTHO SUJAMTO,2013-07-01,2016-1,OPT,NAIK GRADE
67920001,6792020K3,LUKERTINA SILITONGA,2014-01-01,2016-1,OPT,
67920005,6792035K3,ROMDHONI,2013-07-01,2016-1,POT,NAIK GRADE
67920007,6792044K3,HENDRI MAULANA,2015-07-01,2016-1,POT,
67920026,6792153K3,SUGENG PRAYITNO,2014-01-01,2016-1,POT,
67920028,6792159K3,YULIANUS TELUSSA,2014-01-01,2016-1,POT,
67920029,6792160K3,SAIHU,2014-01-01,2016-1,OPT,
67920036,6792208K3,RUDY SALAM,2015-01-01,2016-1,OPT,
67920039,6792216K3,JANUARI MANOSOR LUBIS,2014-01-01,2016-1,OPT,
67920041,6792220K3,AVERROES,2015-01-01,2016-1,POT,
67920046,6792227K3,ROJALIH M.,2014-07-01,2016-1,OPT,
67930020,6793197K3,PAINO,2014-01-01,2016-1,POT,
67930026,6793423K3,RODILAHADI,2014-01-01,2016-1,POT,
67940003,6794004P2B,SITI AISYAH RATNAWANDARI,2014-07-01,2016-1,POT,
68860000,6886030K3,SYARIFUDDIN,2013-07-01,2016-1,OPT,NAIK GRADE
68880004,6888045K3,AKHMAD SYAIKHU,2014-01-01,2016-1,OPT,
68880009,6888059K3,HADIRI,2014-01-01,2016-1,POT,
68900007,6890059K3,ASMUNIYADI,2013-07-01,2016-1,OPT,NAIK GRADE
68910014,6891075K3,YAYAT SURYANA,2016-01-01,2016-1,POT,
68920004,6892029K3,IWAN ISMUNAWAN,2013-07-01,2016-1,POT,NAIK GRADE
68920006,6892057K3,HERMAN SUSILO,2016-01-01,2016-1,OPT,
68920023,6892150K3,MUKADDAR,2014-01-01,2016-1,POT,
68920024,6892155K3,SYAFRIL AWALLUDIN,2014-01-01,2016-1,POT,
68920025,6892156K3,AMIRUDDIN M. YUSUF,2015-01-01,2016-1,POT,
68920033,6892188K3,SUKARNA,2014-01-01,2016-1,POT,
68920035,6892198K3,NANDANG,2013-07-01,2016-1,OPT,NAIK GRADE
68930004,6893017P2B,ADJI TEDJA SUKMANA,2015-01-01,2016-1,OPT,NAIK LEVEL KOMPETENSI KHUSUS (SERTIFIKAT :07 JUNI)
68930006,6893033P3B,MUHAMMAD YUSUF,2013-07-01,2016-1,POT,NAIK GRADE
68930015,6893138K3,SLAMET SUPRIYADI,2014-01-01,2016-1,POT,
68930016,6893139K3,RESLINA SILABAN,2013-07-01,2016-1,OPT,NAIK GRADE
68930018,6893150K3,TARSIWAN,2013-07-01,2016-1,POT,NAIK GRADE
68930019,6893161K3,JOKO PURNOMO,2013-07-01,2016-1,POT,NAIK GRADE
68930023,6893178K3,BAMBANG PRIYANTORO,2015-01-01,2016-1,POT,
68930036,6893507K3,DAYAT HIDAYAT,2014-01-01,2016-1,POT,
69890003,6989034K3,ARIES SETYADY PRIHANGGONO,2013-07-01,2016-1,POT,NAIK GRADE
69890004,6989035K3,ANDIKA MAHENDRA,2013-07-01,2016-1,POT,NAIK GRADE
69910015,6991076K3,AKHMAD SARIM,2016-01-01,2016-1,POT,
69910016,6991077K3,HERI SUSANTO,2014-07-01,2016-1,POT,
69910021,6991087K3,PUJIANTO,2013-07-01,2016-1,POT,NAIK GRADE
69910031,6991119JA,EKO SURYONO,2014-07-01,2016-1,SPO,
69920001,6992001K3,DADANG JUHYAR,2015-07-01,2016-1,POT,
69920005,6992022K3,RADINAL,2015-07-01,2016-1,POT,
69920007,6992038K3,ENDANG FIRDAUS,2013-07-01,2016-1,POT,NAIK GRADE
69920008,6992040K3,TRI WALUYO,2014-01-01,2016-1,OPT,
69920015,6992063K3,MOH. AMIRUDDIN,2015-01-01,2016-1,POT,
69920017,6992066K3,BAMBANG CAHYONO,2013-07-01,2016-1,POT,NAIK GRADE
69920021,6992078K3,ADI MAULANA,2015-01-01,2016-1,POT,
69920027,6992142K3,SUSI SULYANDARNI,2013-07-01,2016-1,POT,NAIK GRADE
69920029,6992151K3,ROHADI,2015-01-01,2016-1,POT,
69920034,6992187K3,RIMAN,2016-01-01,2016-1,SPO,
69920041,6992223K3,MUHRON,2015-01-01,2016-1,OPT,
69930015,6993141K3,KOMARUDDIN,2015-07-01,2016-1,SPO,
69930016,6993148K3,HARSONO,2013-07-01,2016-1,OPT,NAIK GRADE
69930017,6993155K3,ADLIAH SYAFITRI,2013-07-01,2016-1,POT,NAIK GRADE
69930031,6993435K3,ZAINAL ARIFIN,2013-07-01,2016-1,POT,NAIK GRADE
69930033,6993469K3,EKO WINARTO,2015-01-01,2016-1,SPO,
69930037,6993504K3,SUPRATMAN,2015-07-01,2016-1,POT,
69930038,6993506K3,MUNTAHAR,2014-01-01,2016-1,OPT,
69930039,6993513K3,FERRY DIPAYANA,2013-07-01,2016-1,POT,NAIK GRADE
69940004,6994010ZD,ANITA PHARMATRISANTI,2013-07-01,2016-1,OPT,NAIK GRADE
69940016,6994085K3,RETNO ANDAYANI MUKTI,2014-01-01,2016-1,POT,
69940028,6994233K3,JULIZAR,2014-01-01,2016-1,POT,
69940029,6994241K3,MULYADI,2013-07-01,2016-1,OPT,NAIK GRADE
69940032,6994260K3,SUGENG SUGIHARTO,2015-01-01,2016-1,POT,
69940033,6994262K3,SUMARTONO A. SUWITO,2013-07-01,2016-1,POT,NAIK GRADE
69940034,6994263K3,SUMARYO,2013-07-01,2016-1,SPO,NAIK GRADE
69940037,6994317K3,YOHANIS CORPUTTY,2014-01-01,2016-1,POT,
70890000,7089055K3,ASWADI,2015-01-01,2016-1,POT,
70910014,7091078K3,EDISON SILABAN,2015-07-01,2016-1,OPT,
70920001,7092003K3,RACHMAN HERIYADI,2015-01-01,2016-1,POT,
70920008,7092021K3,HARYATI ROSANNA GULTOM,2013-07-01,2016-1,POT,NAIK GRADE
70920012,7092034K3,SYARIFUDIN,2015-01-01,2016-1,OPT,
70920014,7092039K3,ARMITA YULIANTI,2014-01-01,2016-1,POT,
70920019,7092050K3,HERY BERTUS ENDRO S.,2014-07-01,2016-1,SPO,NAIK GRADE
70920020,7092051K3,IWAN KURNIAWAN,2015-01-01,2016-1,POT,
70920021,7092058K3,MARULLOH,2015-07-01,2016-1,SPO,
70920023,7092062K3,TEGUH VERIYANTO,2013-07-01,2016-1,OPT,NAIK GRADE
70920024,7092064K3,TUMIN,2015-01-01,2016-1,POT,
70920025,7092073K3,EDI TURYATMOKO,2014-07-01,2016-1,OPT,
70920039,7092186K3,RISMAULI SITUMORANG,2013-07-01,2016-1,POT,NAIK GRADE
70920042,7092200K3,MULYADI SAGITA,2015-01-01,2016-1,POT,
70920045,7092206K3,OJI WIJAYA,2014-01-01,2016-1,SPO,
70920048,7092212K3,HORAS RONY TUA SINAGA,2014-07-01,2016-1,OPT,
70930003,7093006P2B,RATNA KUSWARDANI,2014-01-01,2016-1,POT,
70930021,7093145K3,HOEDI POERWANTO,2015-01-01,2016-1,POT,
70930023,7093186K3,OMAN NURAHMAN,2015-07-01,2016-1,POT,
70930024,7093194K3,BUDI WARDOYO,2016-01-01,2016-1,OPT,
70930030,7093325K3,AGUNG SUPRIYADI,2015-07-01,2016-1,POT,
70930032,7093402K3,AHMAD FAJAR,2015-01-01,2016-1,OPT,
70930035,7093416K3,KRISNOAJI,2015-01-01,2016-1,OPT,
70930036,7093418K3,MUHAMMAD RAHMAT SAPUTRA,2015-01-01,2016-1,POT,
70930037,7093425K3,SLAMET PURWANTO,2015-07-01,2016-1,OPT,NAIK LEVEL KOMPETENSI KHUSUS (SERTIFIKAT :2013)
70930039,7093436K3,MISAR,2015-07-01,2016-1,POT,
70930040,7093443K3,HERMAWAN,2014-07-01,2016-1,POT,
70930046,7093522K3,EMBANG MUSLIM,2015-07-01,2016-1,SPO,
70940007,7094030K3,JONI HARIYADI,2014-01-01,2016-1,SPO,
70940021,7094078K3,YANSEN PARTOGI,2015-07-01,2016-1,POT,
70940028,7094107K3,FERIHATIN,2014-01-01,2016-1,POT,
70940031,7094119K3,AGUS SETIAWAN,2014-01-01,2016-1,POT,
70940040,7094164K3,SADIMAN,2014-01-01,2016-1,OPT,
70940046,7094203K3,DEDI DJUNAEDI,2015-01-01,2016-1,POT,
70940047,7094205K3,DJAELANI,2013-07-01,2016-1,OPT,NAIK GRADE
70940053,7094229K3,JAMALUDIN H. FAESOL,2014-07-01,2016-1,OPT,
70940056,7094250K3,RUDY KRISRIADY,2014-01-01,2016-1,POT,
70940060,7094272K3,TAUFIQUL FAJRI,2015-07-01,2016-1,POT,
70940061,7094286K3,YUS ALI,2014-01-01,2016-1,POT,
70940062,7094289K3,AGUS JAYADI,2013-07-01,2016-1,POT,NAIK GRADE
70940063,7094296K3,ELLY DJANUATY,2013-07-01,2016-1,POT,NAIK GRADE
71910012,7191088K3,MOH. ENDIT,2013-07-01,2016-1,POT,NAIK GRADE
71920002,7192004K3,TONI SUHARTONO,2015-07-01,2016-1,SPO,
71920004,7192009K3,ARIF SUNDARI,2014-01-01,2016-1,SPO,NAIK GRADE
71920011,7192030K3,RONI MARIO,2013-07-01,2016-1,POT,NAIK GRADE
71920017,7192059K3,MASROH,2016-01-01,2016-1,POT,
71920019,7192075K3,ICHWAN SETIADI,2014-01-01,2016-1,POT,
71920031,7192148K3,MUHAMMAD JAINAL,2014-07-01,2016-1,POT,
71920034,7192152K3,MOCH. IRFAN,2014-01-01,2016-1,POT,
71920035,7192154K3,SUTOYO,2014-01-01,2016-1,POT,
71920036,7192157K3,RAHMAT CAHYONO,2016-01-01,2016-1,OPT,
71920039,7192175K3,RAENAL,2016-01-01,2016-1,SPO,
71920040,7192176K3,HARTONO,2013-07-01,2016-1,OPT,NAIK GRADE
71920043,7192185K3,FINALDI,2014-07-01,2016-1,POT,
71920045,7192207K3,TIAN,2015-01-01,2016-1,OPT,
71920047,7192210K3,GOKMAN PANDIANGAN,2013-07-01,2016-1,OPT,NAIK GRADE
71930028,7193135K3,BOY ISMANTO,2016-01-01,2016-1,OPT,
71930031,7193160K3,ANI BUDIASTUTI,2016-01-01,2016-1,POT,
71930044,7193412K3,IMAWAN SANTOSO,2015-01-01,2016-1,OPT,
71930045,7193421K3,PRAYOGO,2014-01-01,2016-1,SPO,
71930049,7193448K3,EDDY PRAMUDJITO,2015-01-01,2016-1,OPT,
71930051,7193460K3,PURWANTO,2013-07-01,2016-1,POT,NAIK GRADE
71930052,7193464K3,ALAM SUDDIN,2014-07-01,2016-1,OPT,
71930053,7193467K3,SYAEFUL ANWAR,2015-07-01,2016-1,POT,
71930055,7193488K3,PUSENO ZAENAL ABIDIN,2013-07-01,2016-1,SPO,NAIK GRADE
71930058,7193524K3,SUMAR,2013-07-01,2016-1,POT,NAIK GRADE
71930059,7193568K3,RACHMAT HIDAYAT,2014-01-01,2016-1,POT,
71940006,7194014P3B,MARIHOT TAMBUN,2014-01-01,2016-1,POT,
71940010,7194015P3B,ANANG SUWIKNJO,2014-01-01,2016-1,POT,
71940012,7194017P,MERCIE IRAWATI,2015-07-01,2016-1,OPT,NAIK LEVEL KOMPETENSI KHUSUS SERTIFIKAT SE 01.07.2014
71940028,7194082K3,AGUS SUHENDRA,2016-01-01,2016-1,SPO,
71940031,7194084K3,GIRI TRIONO,2015-01-01,2016-1,OPT,NAIK GRADE KHUSUS DEFINITIF 01.09.2015
71940036,7194093K3,TIMBUL KARYAWAN,2015-01-01,2016-1,SPO,
71940037,7194095K3,JUMADI,2016-01-01,2016-1,POT,
71940040,7194103K3,PURWIYANTO EKO NUGROHO,2013-07-01,2016-1,POT,NAIK GRADE
71940041,7194118K3,ENGKUS MAYADI,2014-01-01,2016-1,POT,
71940044,7194127K3,JAYUS SAYONO,2014-01-01,2016-1,POT,
71940053,7194157K3,RUDI,2014-01-01,2016-1,POT,
71940056,7194187K3,ADI KUSWANTO,2014-01-01,2016-1,POT,
71940060,7194220K3,HELI SULISTIYO,2013-07-01,2016-1,OPT,NAIK GRADE
71940063,7194232K3,JONES STEVENT KOPALIT,2014-01-01,2016-1,POT,
71940065,7194248K3,RIDWAN M. ODJI,2013-07-01,2016-1,POT,NAIK GRADE
71940066,7194249K3,RIZAL PAHLEVI,2016-01-01,2016-1,SPO,NAIK LEVEL KOMPETENSI KHUSUS SERTIFIKAT SE 26.03.2016
71940068,7194254K3,SIDIK SUKMANA,2015-01-01,2016-1,SPO,
71940069,7194257K3,SRI HANDAYA,2014-01-01,2016-1,OPT,NAIK GRADE
71940072,7194273K3,TEGUH YULIANTO,2013-07-01,2016-1,POT,NAIK GRADE
71940075,7194293K3,DADI PRIBADI,2013-07-01,2016-1,POT,NAIK GRADE
71940078,7194312K3,SUTARTO YUSUF S.,2013-07-01,2016-1,POT,NAIK GRADE
72920001,7292002P3B,TONIH,2014-07-01,2016-1,OPT,
72920003,7292008K3,BUDI UTOMO,2016-01-01,2016-1,SPO,
72920010,7292028K3,SAEPUL KOMARA,2016-01-01,2016-1,POT,
72920012,7292035K3,SA'AMIN,2016-01-01,2016-1,SPO,
72920014,7292048K3,BENNY SUBRATA,2013-07-01,2016-1,SPO,NAIK GRADE
72920015,7292049K3,KERY DERMAWAN,2015-07-01,2016-1,SPO,
72920019,7292068K3,JONI SAHRONI,2015-01-01,2016-1,POT,
72920020,7292069K3,N. SUMARNO HARAZI,2014-01-01,2016-1,POT,
72920035,7292158K3,SURAHMAN,2016-01-01,2016-1,POT,
72920041,7292181K3,FACHRUDIN,2015-07-01,2016-1,SPO,
72920044,7292201K3,E. MUISAN,2016-01-01,2016-1,OPT,
72930027,7293149K3,ISHAK,2014-01-01,2016-1,POT,
72930028,7293158K3,YUSRA DELFINA,2013-07-01,2016-1,POT,NAIK GRADE
72930032,7293196K3,BUDI PANGESTU,2014-01-01,2016-1,OPT,
72930041,7293318K3,WAWAN SUWANDI,2013-07-01,2016-1,POT,NAIK GRADE
72930042,7293319K3,AHMAD SOBIRAN,2014-01-01,2016-1,POT,
72930051,7293419K3,MUHAMMAD ZAINUDIN,2015-01-01,2016-1,OPT,
72930054,7293424K3,SLAMET DASA SUMARWA,2014-01-01,2016-1,POT,
72930056,7293433K3,TEGUH ARIYANTO,2015-01-01,2016-1,POT,
72930057,7293437K3,LULIK PURWIRANTO,2014-07-01,2016-1,OPT,
72930060,7293459K3,SUGENG RIYADI,2013-07-01,2016-1,OPT,NAIK GRADE
72930071,7293505K3,TUMPAK PARULIAN SINAGA,2015-01-01,2016-1,POT,
72930074,7293523K3,UGUN GUNAWAN,2014-01-01,2016-1,POT,
72940012,7294017P3B,ANDRI NIRTA UTAMA,2013-07-01,2016-1,POT,NAIK GRADE
72940036,7294081K3,AGUS SUHANDA,2014-01-01,2016-1,POT,
72940042,7294101K3,DENNY SOEPARJANA,2015-07-01,2016-1,OPT,
72940043,7294109K3,EMAN SULAEMAN,2013-07-01,2016-1,POT,NAIK GRADE
72940056,7294192K3,AMIN BUNYAMIN,2015-01-01,2016-1,SPO,
72940060,7294223K3,HERY KRISTIANTO,2016-01-01,2016-1,SPO,
72940062,7294230K3,JANA SURYANA,2014-01-01,2016-1,POT,
72940066,7294253K3,SHAHABUDIN,2013-07-01,2016-1,POT,NAIK GRADE
72940067,7294255K3,SIGIT WIBOWO,2014-01-01,2016-1,OPT,
72940071,7294284K3,YULI KARYANTO,2015-01-01,2016-1,SPO,
72940076,7294299K3,GUSTAF ERWONDO,2013-07-01,2016-1,POT,NAIK GRADE
72940077,7294305K3,MUSLIM,2014-01-01,2016-1,POT,
73920001,7392007K3,AGUS WALUYO,2013-07-01,2016-1,OPT,NAIK GRADE
73920005,7392055K3,BAYU EKO PRASSETIO,2014-01-01,2016-1,SPO,NAIK GRADE
73920017,7392228K3,SUSATYO PURNOMO,2014-01-01,2016-1,POT,
73930030,7393132K3,EDDY ISTIAWAN,2015-07-01,2016-1,OPT,
73930035,7393143K3,WAHYU BUDIANTO,2015-07-01,2016-1,POT,
73930037,7393151K3,MUHAJIR,2014-07-01,2016-1,OPT,
73930038,7393162K3,BUDI SANTOSO,2013-07-01,2016-1,POT,NAIK GRADE
73930039,7393164K3,MOH. SYAHUDIN,2014-01-01,2016-1,POT,
73930041,7393168K3,JEFRY ZAMI,2013-07-01,2016-1,OPT,NAIK GRADE
73930042,7393170K3,DARUL IRFAN,2016-01-01,2016-1,SPO,
73930056,7393314K3,SYARIF HIDAYATULLAH,2016-01-01,2016-1,POT,
73930057,7393317K3,AGUS HIDAYAT,2016-01-01,2016-1,POT,
73930058,7393320K3,DEDE RAMLI GUNAWAN,2014-01-01,2016-1,POT,
73930059,7393324K3,MOH. SURYADI,2014-07-01,2016-1,POT,
73930060,7393328K3,WISMAN MULYANA TAWAKAL,2014-01-01,2016-1,OPT,
73930063,7393405K3,ARDIYAN,2016-01-01,2016-1,POT,
73930065,7393442K3,TRI WARYATININGSIH,2016-01-01,2016-1,POT,
73930066,7393444K3,DENI HENDRA IRAWAN,2015-07-01,2016-1,OPT,
73930069,7393452K3,FX TJUKU BIMO SUSETO AL M. IDRIS,2013-07-01,2016-1,POT,NAIK GRADE
73930073,7393462K3,ATIM MULYANA,2013-07-01,2016-1,POT,NAIK GRADE
73930074,7393463K3,IRFAN,2016-01-01,2016-1,POT,
73930075,7393473K3,YOPI FITRIYANTO,2014-01-01,2016-1,SPO,
73930077,7393512K3,GUNTUR BILIATER SITORUS,2015-01-01,2016-1,OPT,
73930078,7393514K3,EDI BORE KURNIAWAN,2013-07-01,2016-1,POT,NAIK GRADE
73930079,7393517K3,WAHYU DINUR,2016-01-01,2016-1,OPT,
73930080,7393520K3,HUNDUSIN,2015-07-01,2016-1,OPT,
73930081,7393525K3,UDENG SUDIRMAN,2016-01-01,2016-1,POT,
73930082,7393526K3,DEDEN HERMAWAN,2016-01-01,2016-1,POT,
73930084,7393786K3,RACHMAD NUGROHO,2016-01-01,2016-1,POT,
73940013,7394024P3B,BAMBANG PERMADI,2013-07-01,2016-1,POT,NAIK GRADE
73940032,7394072K3,SUMBER ARUSTIE UTAMI,2015-01-01,2016-1,POT,
73940034,7394076K3,POPI ARIESTYANTO,2013-07-01,2016-1,POT,NAIK GRADE
73940039,7394086K3,IIN KURNIATININGSIH,2013-07-01,2016-1,POT,NAIK GRADE
73940044,7394106K3,AGUS WALUYO,2016-01-01,2016-1,POT,
73940046,7394114K3,ENDANG IWAN,2014-01-01,2016-1,POT,
73940048,7394124K3,ANIFUDIN,2013-07-01,2016-1,POT,NAIK GRADE
73940051,7394134K3,YUSUF HADIANSYAH,2014-01-01,2016-1,POT,
73940069,7394200K3,ASEP HAMDAN BAEHAKI,2014-01-01,2016-1,POT,
73940070,7394210K3,EKO SETIAWAN,2016-01-01,2016-1,SPO,
73940071,7394222K3,HERI KHAERUMAN,2013-07-01,2016-1,POT,NAIK GRADE
73940073,7394238K3,MANSUR,2013-07-01,2016-1,POT,NAIK GRADE
73940077,7394274K3,TOTO RIYANTO,2015-07-01,2016-1,SPO,
73940079,7394277K3,WASTU WIDIYANTO,2016-01-01,2016-1,SPO,
73940080,7394280K3,WISNU SUBROTO,2015-01-01,2016-1,SPO,
73940084,7394307K3,RESTU EKO SUPRIYANTO,2016-01-01,2016-1,SPO,
74930003,7493032P2B,AGUS WIBOWO,2016-01-01,2016-1,SPO,NAIK LEVEL KOMPETENSI KHUSUS SERTIFIKAT JUNI 2015
74930012,7493153K3,IWAN PUASANTO,2015-07-01,2016-1,OPT,
74930013,7493156K3,APRILIANTI ERVINA,2015-01-01,2016-1,POT,
74930020,7493180K3,YULIA SUSANTI,2013-07-01,2016-1,POT,NAIK GRADE
74930021,7493188K3,ANTON PRIYANTO,2013-07-01,2016-1,POT,NAIK GRADE
74930023,7493315K3,SAIFUL EFENDI,2013-07-01,2016-1,SPO,NAIK GRADE
74930025,7493411K3,HERWIN PERO,2013-07-01,2016-1,OPT,NAIK GRADE
74930026,7493415K3,JASMANI,2015-01-01,2016-1,OPT,
74930027,7493431K3,SUMARSONO,2016-01-01,2016-1,SPO,
74930032,7493476K3,KELIK HARY PRIBADI,2013-07-01,2016-1,POT,NAIK GRADE
74930039,7493516K3,IJUDIN SIROJUDIN,2013-07-01,2016-1,POT,NAIK GRADE
74940005,7494025P3B,NA'ALIH ISKANDAR,2016-01-01,2016-1,OPT,
74940025,7494071K3,SAIDAH,2014-01-01,2016-1,POT,
74940026,7494074K3,IMAM SANTOSA,2014-07-01,2016-1,POT,
74940036,7494100K3,MARGANDA SIBARANI,2013-07-01,2016-1,SPO,NAIK GRADE
74940039,7494110K3,HIKMAT DARMAWAN,2014-01-01,2016-1,POT,
74940043,7494112K3,DJUNAEDI,2016-01-01,2016-1,POT,
74940045,7494113K3,AGUS HERMAWAN,2016-01-01,2016-1,POT,
74940046,7494115K3,DEDEN,2013-07-01,2016-1,POT,NAIK GRADE
74940048,7494123K3,AHMAD ADE SYUHADA,2015-01-01,2016-1,POT,
74940049,7494129K3,BUDI AHMAD SOLIHIN,2014-01-01,2016-1,POT,
74940051,7494133K3,ROMI SETIAWAN,2013-07-01,2016-1,POT,NAIK GRADE
74940056,7494144K3,BUDI SANTOSO,2014-01-01,2016-1,POT,
74940065,7494159K3,SARIFUDIN,2014-01-01,2016-1,POT,
74940068,7494162K3,HILMAN LUKMAN AMIR,2015-07-01,2016-1,POT,
74940070,7494188K3,AGUNG SASONGKO,2014-01-01,2016-1,POT,
74940072,7494201K3,AZIS FIRMANSYAH,2015-07-01,2016-1,SPO,
74940079,7494231K3,JANUARDI,2013-07-01,2016-1,SPO,NAIK GRADE
74940082,7494265K3,SUPARDI WAGIMAN,2016-01-01,2016-1,SPO,
74940083,7494270K3,SUWARTO,2016-01-01,2016-1,SPO,
74940084,7494285K3,YUNIYANTO,2013-07-01,2016-1,OPT,NAIK GRADE
74940085,7494291K3,BUDIARTO,2014-01-01,2016-1,POT,
74940089,7494318K3,ZULKARNAIN,2014-07-01,2016-1,OPT,
75930000,7593157K3,SUKMA HATRIANA,2016-01-01,2016-1,OPT,
75930001,7593446K3,SUMIATI,2013-07-01,2016-1,POT,NAIK GRADE
75930006,7593518K3,GUNTER ELWARDI,2014-01-01,2016-1,POT,
75930007,7593529K3,ARIEF RACHMAN,2015-07-01,2016-1,OPT,
75940014,7594092K3,HARY TRIWIBOWO,2015-07-01,2016-1,POT,
75940015,7594102K3,ASEP WAHYU SUDRAJAT,2014-07-01,2016-1,OPT,
75940021,7594139K3,ANDI RUSWANDI,2013-07-01,2016-1,POT,NAIK GRADE
75940023,7594140K3,ALBARKAH,2014-01-01,2016-1,POT,
75940025,7594186K3,ADE SOBANDI,2016-01-01,2016-1,SPO,
75940026,7594195K3,ARIEF WICAKSONO,2014-01-01,2016-1,POT,
75940028,7594211K3,EKO SUPRIYANTO,2016-03-01,2016-1,OPT,
75940031,7594244K3,NANDANG,2014-01-01,2016-1,SPO,NAIK GRADE
78030002,7803005P3B,HANIFAN SULISTYOSO,2016-01-01,2016-1,SPO,
79030001,7903003P3B,YENI DWI ARIYANTO,2015-07-01,2016-1,OPT,NAIK LEVEL KOMPETENSI KHUSUS
79040007,7904017P3B,YULIA YUSTIANA,2014-01-01,2016-1,OPT,
79040008,7904018P3B,SETIYA NINGSIH,2015-07-01,2016-1,OPT,NAIK GRADE KHUSUS DEFINITIF 01.01.2015
79053801,7905006J,YOSSI EKA PUTRI,2014-01-01,2016-1,POT,
79061600,7906121Z,SYLVINA NASWIL,2014-07-01,2016-1,SPO,
79064003,7906118Z,WILLY SISKA,2014-01-01,2016-1,OPT,
79064004,7906125Z,TONNY FERDINANTO,2014-01-01,2016-1,POT,
80030002,8003006P3B,HERMAWAN ISTIONO,2013-07-01,2016-1,POT,NAIK GRADE
80061603,8006233Z,ASLIHATIN ZULIANA,2015-01-01,2016-1,POT,
80064019,8006268Z,GUNAWAN WIJAYA,2015-07-01,2016-1,POT,
81058600,8105003PBS,NENNY MARHAYANI,2015-07-01,2016-1,POT,
81064021,8106355Z,A. YUNITA MARADIL,2015-07-01,2016-1,POT,
81064029,8106372Z,IRVAN KHAIRIL SOLIN,2014-01-01,2016-1,OPT,NAIK GRADE
81084645,8108434Z,TONY WIDYA PRASETIO,2015-01-01,2016-1,POT,
82040016,8204038P3B,R. CANDRA HERMAWAN,2014-01-01,2016-1,SPO,NAIK LEVEL KOMPETENSI
82064030,8206453Z,IRA MARDYA SARI,2015-01-01,2016-1,POT,
82064200,8206633Z,WIDARTI,2016-01-01,2016-1,SPO,
82064202,8206052P3B,HERMAWAN,2014-07-01,2016-1,SPO,
82064204,8206054P3B,MOCH. AGUNG DERMAWAN,2015-07-01,2016-1,POT,
82064209,8206059P3B,MOCH. CAHYA DWI ANGGA,2015-07-01,2016-1,POT,
82104201,8210063Z,WAHYU RAHARJO,2015-07-01,2016-1,SPO,
83064032,8306478Z,ARY GEMAYEL,2015-07-01,2016-1,OPT,NAIK LEVEL KOMPETENSI KHUSUS SERTIFIKAT MAR 2016
83064210,8306060P3B,DODI ISKANDAR JUNAEDI,2013-07-01,2016-1,POT,NAIK GRADE
83074200,8307001P3B,ADELIN DICKY PRIBADI,2015-07-01,2016-1,OPT,NAIK LEVEL KOMPETENSI KHUSUS DEFINITIF JULI 2015
83074204,8307003P3B,FEFRIA TANBAR,2015-01-01,2016-1,SPO,
83074206,8307004P3B,DIDI SUPRIYANTO,2016-01-01,2016-1,POT,
83074207,8307009P3B,MUHAMMAD FAUZI,2015-07-01,2016-1,POT,
84040014,8404032P3B,MUHAMMAD ASYHARI,2016-01-01,2016-1,SPO,
84040019,8404042P3B,FAHRUR RIZAL,2014-01-01,2016-1,SPO,NAIK GRADE
84064212,8406062P3B,ASEP SOLIHIN AKBAR,2013-07-01,2016-1,POT,NAIK GRADE
84074203,8407008P3B,ARIF ZAENAL MUTAQIN,2015-01-01,2016-1,POT,
84074208,8407005P3B,HARRY FAHBILEYA PASA,2016-01-01,2016-1,SPO,NAIK GRADE KHUSUS DEFINITIF APR 2015
84094003,8409598Z,KURNIAWAN,2016-01-01,2016-1,OPT,
85040003,8504033P3B,ARIS FARDILAH,2015-07-01,2016-1,SPO,
85040004,8504035P3B,NOPI RIANSYAH,2016-01-01,2016-1,OPT,
85074205,8507007P3B,ARIEF YULIYANTO,2014-01-01,2016-1,POT,
85084275,8508075P3B,M. NUR ROIS ABID,2015-01-01,2016-1,POT,
85084280,8508080P3B,ARIP WIJAYANTO,2015-01-01,2016-1,POT,
85084441,8508130P3B,MAMAN SUDIRMAN,2015-01-01,2016-1,SPO,
85090001,8509424Z,MEGA YULIANA,2016-01-01,2016-1,OPT,
85094000,8509237Z,ANNASTASYA BASTIAN,2015-07-01,2016-1,POT,
85094003,8509639Z,IMAM SUBRATA,2016-04-01,2016-1,POT,
85094200,8509312Z,JUMARNAWATI,2015-07-01,2016-1,POT,PINDAH SULUTENGGO
85094601,8509281Z,TANZIL RAMADHAN AL JUFRI,2015-07-01,2016-1,POT,
85104201,8510091Z,MUCHAMMAD FAUZI,2015-07-01,2016-1,POT,
85114001,8511202Z,NOVARIANY ROHANA BONAEDY,2014-01-01,2016-1,OPT,
86074201,8607006P3B,JOKO PRASETYO,2015-01-01,2016-1,OPT,
86084225,8608025P3B,FERY SULESTIO,2016-01-01,2016-1,POT,
86084231,8608031P3B,SUSANTO,2015-01-01,2016-1,OPT,
86084248,8608048P3B,ABDUL GHOFAR,2015-01-01,2016-1,POT,
86084253,8608053P3B,IBNU DARMAWAN,2015-01-01,2016-1,POT,
86084261,8608061P3B,PRABOWO,2015-01-01,2016-1,POT,
86084271,8608071P3B,DAMANHURI,2015-01-01,2016-1,POT,
86084288,8608088P3B,AHMAD FAUZI,2015-01-01,2016-1,POT,
86094000,8609652Z,BAYU PUTRA ANDRIANTO,2016-03-01,2016-1,OPT,
86094200,8609361Z,NUNIEK YULI UTAMI,2015-07-01,2016-1,POT,
86094210,8609011P3B,AMRUDIN DWI ANTOKO,2015-07-01,2016-1,POT,
86094251,8609052P3B,HARJANTO GITO SARJONO,2015-07-01,2016-1,OPT,
86094262,8609063P3B,DWI LESTARI SEPTYANDI,2015-01-01,2016-1,SPO,
86096803,8609741Z,"ROBIATNA AGUS FANHAR, S.H.",2014-07-01,2016-1,OPT,
86104002,8610111Z,EPRIDO MEILADI,2016-01-01,2016-1,POT,
86104200,8610310Z,AMANDA SRI LESTARI PUTRIYANI,2016-01-01,2016-1,POT,
86114000,8611102Z,DAHLIA DEKA PERMATA,2014-01-01,2016-1,POT,
86114001,8611762Z,BRYAN BIMA LAKSANA,2014-01-01,2016-1,SPO,NAIK GRADE
87084211,8708011P3B,ARIF AL KHAIRI,2015-01-01,2016-1,SPO,
87084220,8708020P3B,RIFKI MAULANA,2015-01-01,2016-1,POT,
87084266,8708066P3B,GINANJAR YULI PURNOMO,2015-01-01,2016-1,POT,
87084272,8708072P3B,MUKH. KASFUL ANWAR,2015-01-01,2016-1,POT,
87084274,8708074P3B,PERDANA ADHYATMAJA,2015-01-01,2016-1,SPO,NAIK GRADE KHUSUS DEFINITF MAR 2016
87084283,8708083P3B,ARIF SUGIARTO,2015-01-01,2016-1,POT,
87094206,8709007P3B,AGUS SETIYAWAN,2015-01-01,2016-1,SPO,
87094212,8709013P3B,ARIF SETYAWAN,2016-01-01,2016-1,POT,
87094220,8709021P3B,SIGIT DWI SISWANTO,2015-01-01,2016-1,OPT,
87094242,8709043P3B,ACHMAD RIZKI PRATAMA,2015-07-01,2016-1,POT,
87094243,8709044P3B,LEGISTA ROMADHONI MARDILLAH,2015-07-01,2016-1,OPT,
87094244,8709045P3B,IRVAN RAMDANI,2015-07-01,2016-1,SPO,
87094245,8709046P3B,SAIFUL ROMADHON,2015-07-01,2016-1,OPT,
87094257,8709058P3B,AHMAD KHUSAIRI,2015-07-01,2016-1,POT,
87094259,8709060P3B,ARMAIKA VIDI HANDOKO,2015-07-01,2016-1,SPO,
87094260,8709061P3B,BIADI SAPAK,2015-07-01,2016-1,SPO,
87104003,8710475Z,AJI SUNANDAR,2013-07-01,2016-1,POT,NAIK LEVEL KOMPETENSI
87104200,8710933Z,NURDIONO,2015-07-01,2016-1,POT,
87104202,8710935Z,RIZA VIRGIANI,2014-01-01,2016-1,SPO,
87114201,87111550Z,RIZQI SATYA NUGRAHA,2014-01-01,2016-1,OPT,
88084205,8808005P3B,WAHYU PUTRA SETYAWAN,2015-01-01,2016-1,POT,
88084207,8808007P3B,WARDHA JAILANI OKTAFIKA PRINANDA,2015-01-01,2016-1,SPO,
88084210,8808010P3B,GILANG KUSUMAJATI,2015-01-01,2016-1,SPO,
88084212,8808012P3B,DIDIN MUHYIDIN,2015-01-01,2016-1,OPT,
88084221,8808021P3B,MARYO,2014-07-01,2016-1,SPO,
88084230,8808030P3B,DANAISWARA WIBAWA,2015-01-01,2016-1,SPO,NAIK GRADE KHUSUS DEFINITIF MAR 2016
88084233,8808033P3B,DANANG HARIS DARMAWAN,2016-01-01,2016-1,SPO,NAIK GRADE KHUSUS DEFINITIF MAR 2017
88084234,8808034P3B,MOCH. REZA INDRAWAN,2015-01-01,2016-1,POT,
88084251,8808051P3B,ARIYANTO,2014-07-01,2016-1,SPO,
88084256,8808056P3B,DIANTO,2015-01-01,2016-1,POT,
88084258,8808058P3B,BOWO PRATOMO,2015-01-01,2016-1,SPO,NAIK GRADE KHUSUS DEFINITIF MAR 2017
88084260,8808060P3B,SLAMET WALOYO,2015-01-01,2016-1,POT,
88084263,8808063P3B,FERY WIBOWO,2015-01-01,2016-1,POT,
88084267,8808067P3B,AGUS MONO PURWIANTA,2015-01-01,2016-1,POT,
88084268,8808068P3B,GERRY HANDARU RIESDIANTO,2014-07-01,2016-1,POT,
88084269,8808069P3B,TOTOK HERDIANTO,2015-01-01,2016-1,POT,
88084270,8808070P3B,HIDAYATUL IKSAN,2014-07-01,2016-1,POT,
88084273,8808073P3B,NANANG HADI,2016-01-01,2016-1,SPO,
88084276,8808076P3B,FITROH BUDI SANTOSO,2015-01-01,2016-1,POT,
88084278,8808078P3B,MOCH. ZAINUDIN AS,2015-01-01,2016-1,OPT,
88084279,8808079P3B,IRFAN,2015-01-01,2016-1,POT,
88084281,8808081P3B,RUDI TEGUH PRASETYO,2016-01-01,2016-1,POT,
88084282,8808082P3B,ZAINAL ARIFIN,2015-01-01,2016-1,POT,
88084284,8808084P3B,SUYANTO,2015-01-01,2016-1,SPO,
88094201,8809002P3B,MUHAMAD SYAIFUL HUDA,2015-07-01,2016-1,OPT,
88094203,8809004P3B,OKY TIYAS GIYANTOKO,2015-07-01,2016-1,POT,
88094205,8809006P3B,ADI PUSWANTORO,2015-07-01,2016-1,POT,
88094208,8809009P3B,EDY SULAKSONO,2015-01-01,2016-1,SPO,
88094218,8809019P3B,FRIBIANTO DWI CAHYA ADIPUTRA,2015-07-01,2016-1,POT,
88094228,8809029P3B,SUGIARTHO CHANDRA HIMAWAN,2015-07-01,2016-1,POT,
88094236,8809037P3B,ADI KUSMIYANTO,2015-07-01,2016-1,SPO,
88094249,8809050P3B,REVIR OKTYA SAPUTRA,2015-07-01,2016-1,OPT,
88100009,88101055Z,RISKA MARTINA WATI LOVA SITEPU,2014-01-01,2016-1,PPE,
88104200,88101069Z,DANY SUDIBYO,2014-01-01,2016-1,SPO,NAIK LEVEL KOMPETENSI
88104201,8810002P3B,ANDRIANA RAHMAWAN,2014-01-01,2016-1,OPT,
88104203,8810004P3B,SAEPUL BAHRI,2014-01-01,2016-1,POT,
88104209,8810010P3B,PRIMA WIDI NUGROHO,2014-01-01,2016-1,POT,
88104212,8810013P3B,ARI NUGROHO WICAKSONO,2014-01-01,2016-1,POT,
88114000,8811831Z,PANGERAN ROLANDO GULTOM,2016-01-01,2016-1,POT,
88114200,88111630Z,WAHYU CITRA KURNIAWAN,2014-01-01,2016-1,OPT,
88124002,8812398ZY,TENGKU MUHAMMAD HIDAYAT,2015-07-01,2016-1,SPO,
89084201,8908001P3B,PRADANA PARAHITA,2015-01-01,2016-1,SPO,
89084202,8908002P3B,LUCKY PRABOWO,2015-01-01,2016-1,SPO,
89084203,8908003P3B,ALI JAENUDIN,2015-01-01,2016-1,SPO,
89084204,8908004P3B,SYAIFUL ELMI,2015-01-01,2016-1,OPT,
89084208,8908008P3B,PRADHITYA WASTU NURJITO,2015-01-01,2016-1,SPO,
89084209,8908009P3B,ABDUL FAJAR,2015-01-01,2016-1,SPO,
89084213,8908013P3B,FARCHAN AGUS SUJONO,2015-01-01,2016-1,POT,
89084214,8908014P3B,FIKI PERMANA SARI PUTRA,2015-01-01,2016-1,POT,
89084215,8908015P3B,HERU HAERUDIN,2015-01-01,2016-1,POT,
89084217,8908017P3B,MOCH. PADJARUL ANWAR,2015-01-01,2016-1,POT,
89084218,8908018P3B,NURUL AZHAR,2015-01-01,2016-1,POT,
89084219,8908019P3B,RETNO HADIWINOTO,2015-01-01,2016-1,POT,
89084222,8908022P3B,SANJAYA AGUS SAPUTRA,2015-01-01,2016-1,POT,
89084223,8908023P3B,HIKMAH PRASETIA,2013-07-01,2016-1,OPT,NAIK GRADE
89084224,8908024P3B,JULI SETIAWAN,2015-01-01,2016-1,POT,
89084226,8908026P3B,HERULLOH,2015-01-01,2016-1,OPT,
89084227,8908027P3B,TOMY TRI WISNU,2015-01-01,2016-1,POT,
89084228,8908028P3B,MARZUARDI ASWAR,2015-01-01,2016-1,POT,
89084232,8908032P3B,FERDINANDUS EDY JUNANTORO,2015-01-01,2016-1,POT,
89084250,8908050P3B,ASRUL HARDIYATNO,2015-01-01,2016-1,POT,
89084254,8908054P3B,BANGKIT PRATAMA,2015-01-01,2016-1,OPT,
89084262,8908062P3B,LUKMAN EKO SUSANTO,2015-01-01,2016-1,POT,
89084264,8908064P3B,ARIF DJAINUDIN,2015-01-01,2016-1,POT,
89084277,8908077P3B,TAKARI ADI SANJAYA,2016-01-01,2016-1,POT,
89084285,8908085P3B,SOLIKIN,2015-01-01,2016-1,SPO,
89084286,8908086P3B,DANI ARIF FAUZI,2015-01-01,2016-1,POT,
89084287,8908087P3B,KRIS MART SULFIANTO,2015-01-01,2016-1,POT,
89084289,8908089P3B,RIA SUBEKTI,2015-01-01,2016-1,POT,
89094200,8909001P3B,AMAD,2016-01-01,2016-1,SPO,
89094207,8909008P3B,IMAM MUKHLISH,2015-07-01,2016-1,SPO,
89094216,8909017P3B,ADITYA FIRMANTO,2015-07-01,2016-1,POT,
89094221,8909022P3B,RENDY,2015-07-01,2016-1,POT,
89094222,8909023P3B,HEDI PURWANTO,2015-07-01,2016-1,SPO,
89094230,8909031P3B,ANGGA WISESA,2015-07-01,2016-1,OPT,
89094235,8909036P3B,BASORI,2015-07-01,2016-1,SPO,
89094247,8909048P3B,ANDREAS CHRISTIAN SUBIYANTORO,2015-07-01,2016-1,POT,
89094250,8909051P3B,SYAIKHU MUBAROK,2015-07-01,2016-1,POT,
89094256,8909057P3B,TUENG KURNIAWAN,2015-01-01,2016-1,OPT,
89094258,8909059P3B,BUDI SETYO,2015-07-01,2016-1,SPO,
89094431,8909095P3B,THORIQURRIDHO,2015-01-01,2016-1,POT,
89104200,8910001P3B,AFID SUGIARTO,2014-01-01,2016-1,OPT,
89104202,8910003P3B,MUHAMAD IQBAL,2014-01-01,2016-1,POT,
89114200,89111689Z,MOHAMMAD KHAYATUL FALAKH,2015-07-01,2016-1,POT,
89114201,89111680Z,ARFAN ID'HA NORGIYANTO,2014-01-01,2016-1,POT,
89134000,8913086ZY,MUHAMMAD IHSAN,2016-01-01,2016-1,POT,
89154001,8915037ZY,FARIZ PRAWIRAYUDA,2015-01-01,2016-1,OPT,
89154002,8915325ZY,COSA PAMUNGKAS PRABASWARA,2015-03-01,2016-1,POT,
90084206,9008006P3B,ADITYA SAPUTRA,2015-01-01,2016-1,OPT,
90084216,9008016P3B,JAINUL KARIM,2015-01-01,2016-1,OPT,
90084265,9008065P3B,RENDY PRAMESTI WIDODO,2015-01-01,2016-1,POT,
90094202,9009003P3B,SOFYAN ROMADHONI,2015-07-01,2016-1,POT,
90094209,9009010P3B,ANDIKA SYAIFUL RIZAL,2015-07-01,2016-1,POT,
90094213,9009014P3B,ABDUL ROHMAN SUGIARTO,2015-07-01,2016-1,POT,
90094215,9009016P3B,JAKA RANGGA,2015-07-01,2016-1,POT,
90094217,9009018P3B,BUDIYONO,2015-07-01,2016-1,SPO,NAIK GRADE KHUSUS DEFINITIF AGT 2015
90094219,9009020P3B,MUKHAMMAD FATKHUL ZANUARDI,2015-01-01,2016-1,OPT,
90094223,9009024P3B,DAVID AGUNG JUNAEDI,2015-07-01,2016-1,POT,
90094229,9009030P3B,RIYAN MARDIYANSYAH,2015-07-01,2016-1,POT,
90094231,9009032P3B,TANJUNG PURWOADI,2015-07-01,2016-1,OPT,
90094233,9009034P3B,UJIK LUKMANA,2014-07-01,2016-1,OPT,
90094234,9009035P3B,YUDHA TRI GUTAMA,2015-01-01,2016-1,OPT,
90094238,9009039P3B,WAHYU ADE PRASETIA,2015-07-01,2016-1,SPO,
90094239,9009040P3B,NOWO WICAKSONO,2015-07-01,2016-1,POT,
90094240,9009041P3B,DIPO GALANG MEDANO,2015-07-01,2016-1,POT,
90094248,9009049P3B,EDI SUMITRA,2015-07-01,2016-1,OPT,NAIK LEVEL KHUSUS DEFINITIF JUL 2015
90094252,9009053P3B,AHMAD HARIYANTO,2015-07-01,2016-1,SPO,
90094253,9009054P3B,EDY SUCIPTO,2015-07-01,2016-1,POT,
90094254,9009055P3B,MUHAMAD HARIAWAN,2015-07-01,2016-1,OPT,
90094255,9009056P3B,SATRIA,2015-07-01,2016-1,POT,
90104208,9010009P3B,MIRWAN EFFENDI,2014-01-01,2016-1,POT,
90104214,9010015P3B,SUKARMAN,2014-01-01,2016-1,POT,
90104216,9010017P3B,CATUR MARTIYANTO,2014-01-01,2016-1,POT,
90104218,9010019P3B,MOCH SAMNGARI,2014-01-01,2016-1,POT,
90104219,9010020P3B,SYAHRUL NUR CHAJAR,2014-01-01,2016-1,POT,
90134001,9013403ZY,SYAUQI FUTTAKI,2013-12-01,2016-1,POT,
90140404,9014682ZY,AKBAR SULTHON,2014-07-01,2016-1,POT,
90144000,9014126ZY,TIGOR ENGELBERTH PARDAMEAN L. TOBING,2014-04-01,2016-1,SPO,
90144003,9014225ZY,SATRIA DWI SAPUTRA,2014-05-01,2016-1,POT,
90154011,9015414ZY,FELIX BONAVENTURA SARAGIH SIMARMATA,2015-03-01,2016-1,OPT,
90154012,9015359ZY,HENDRA NUGRAHA,2015-03-01,2016-1,POT,
90154014,9015434ZY,AMDI NOPRIANSYAH,2015-03-01,2016-1,OPT,
90154017,9015701ZY,RAHMANUL IKHSAN,2015-05-01,2016-1,POT,
90154022,9015718ZY,MELDASARI,2015-05-01,2016-1,POT,
90154026,9015763ZY,ARTON JOHAN LUBIS,2015-05-01,2016-1,OPT,
90164001,9016055ZY,M. RAMADANI,2016-01-01,2016-1,POT,
91094211,9109012P3B,BAEHAQI,2015-07-01,2016-1,OPT,
91094237,9109038P3B,ROFI'UL HUDA,2015-01-01,2016-1,POT,
91104205,9110006P3B,ARIF RAHMAN HAKIM,2014-01-01,2016-1,OPT,
91104210,9110011P3B,DIAN ANDRIANTO,2014-01-01,2016-1,POT,
91104211,9110012P3B,SULAEMAN APRIYANTO,2014-01-01,2016-1,POT,
91104213,9110014P3B,ARDIAN ARIEF RAHMAN,2014-01-01,2016-1,POT,
91104217,9110018P3B,OVAN ADY SANTOSO,2014-01-01,2016-1,POT,
91104403,9110024P3B,ROFIQ MADHY,2014-01-01,2016-1,POT,
91124002,9112017P3Y,PAHALA KEMALA SIMANJUNTAK,2015-07-01,2016-1,POT,
91124006,9112021P3Y,OKKY ANDREAS TRIONO,2015-07-01,2016-1,OPT,
91144004,9114961ZY,LEIDENTI DWIJAYATI,2014-08-01,2016-1,POT,
91154001,9115150ZY,PUTRI KOMALA DEWI,2015-01-01,2016-1,POT,
91154004,9115214ZY,SHAGA SHAULAGARA,2015-01-01,2016-1,OPT,
91154008,9115447ZY,DAVID R. H. NAPITUPULU,2015-03-01,2016-1,SPO,
91154015,9115802ZY,RANDY RESTIANDA,2015-05-01,2016-1,POT,
91154021,9115833ZY,AFRI RIZKI WIJAYA,2015-05-01,2016-1,SPO,
91154023,9115845ZY,ANDI PRAMANA TARIGAN,2015-05-01,2016-1,OPT,
91154026,91151141ZY,TITO HERMAWAN,2015-07-01,2016-1,OPT,
91164100,9116890ZY,IITA FADLILAH,2016-02-01,2016-1,POT,
92104215,9210016P3B,AQNA',2014-01-01,2016-1,POT,
92124000,9212001P3Y,FITRI ANDRIYATI,2015-01-01,2016-1,OPT,
92124001,9212008P3Y,ANGGI YUSUF,2015-07-01,2016-1,POT,
92124003,9212010P3Y,MUHAMMAD ABU RIZAL,2015-07-01,2016-1,POT,
92124011,9212027P3Y,WAHYU NGAINUR ROFIK,2015-07-01,2016-1,POT,
92124015,9212031P3Y,MUNIRUL ANAM,2015-07-01,2016-1,OPT,
92134001,9213003P3Y,PUJIANTO,2013-05-01,2016-1,POT,NAIK GRADE
92144003,9214318ZY,ROBY HIBBAN NURULLOH,2014-05-01,2016-1,OPT,
92144007,9214300ZY,MIKA PRIMADANI,2014-05-01,2016-1,POT,
92144009,9214282ZY,M. RENDY AKMI,2014-05-01,2016-1,SPO,
92154006,9215862ZY,FAJLI MUSTAFA,2015-05-01,2016-1,SPO,
92154016,9215908ZY,ISLAMI TRIANDIKO,2015-05-01,2016-1,OPT,
92164004,9216260ZY,TIKA MAYA SARI,2016-01-01,2016-1,POT,
92164005,9216263ZY,AZZAHRANINNA TRYOLLINNA,2016-01-01,2016-1,POT,
92164100,9216611ZY,INDAH CHARISMASARI,2016-02-01,2016-1,POT,
92164101,9216917ZY,ANNA DWITA PAULUS SUDIN,2016-02-01,2016-1,POT,
92164102,9216949ZY,JEZZY DWI PUSPO,2016-02-01,2016-1,POT,
93124014,9312041P3Y,PARULIAN DANIEL MARSONGKAL SIDABUTAR,2015-07-01,2016-1,POT,
93124015,9312043P3Y,ZULFIKAR HIDAYAT,2015-07-01,2016-1,OPT,
93124016,9312044P3Y,SONI SOFYAN,2015-07-01,2016-1,POT,
93124017,9312045P3Y,FEBYAN DARMA CIPTA,2015-07-01,2016-1,OPT,
93124018,9312046P3Y,DIMAS HARRY LAKSANA FAJAR,2015-07-01,2016-1,OPT,
93134013,9313026P3Y,ARISANDY HIDAYAT,2013-06-01,2016-1,POT,NAIK GRADE
93134014,9313028P3Y,ARDIANSYAH NOVIANA SAELAN,2013-06-01,2016-1,POT,NAIK GRADE
93134015,9313029P3Y,DEPPY PRASETYAWAN,2013-06-01,2016-1,POT,NAIK GRADE
93134021,9313041P3Y,SEPTIAN ANGGA KUSUMA,2013-06-01,2016-1,POT,NAIK GRADE
93144000,9314001P3Y,AWANG IBRAHIM,2014-07-01,2016-1,OPT,
93144002,9314003P3Y,GANANG ALDI KUSWARA,2014-07-01,2016-1,OPT,
93154000,9315264ZY,DWI ANGGARANI,2015-01-01,2016-1,POT,
93154003,9315944ZY,VANESA TRIASRI PRADHITA,2015-05-01,2016-1,POT,
93154007,93151285ZY,MUHAMAD S. WAHYU NURFIANTO,2015-07-01,2016-1,OPT,
93154011,93151563ZY,GUNTUR UTOMO PRASETYA,2015-09-01,2016-1,POT,
93164100,9316643ZY,AVINA JUNITA FITRI,2016-02-01,2016-1,POT,
93164101,9316686ZY,BANGKIT MULYO KUNCORO,2016-02-01,2016-1,POT,
93164102,9316989ZY,WINARNO,2016-02-01,2016-1,POT,
94124001,9412048P3Y,MUHAMMAD ADITIA,2015-07-01,2016-1,OPT,
94134008,9413024P3Y,ANDRY ACHMAD HIDAYAT,2013-06-01,2016-1,POT,NAIK GRADE
94134009,9413027P3Y,PUTRA MAULANA,2013-06-01,2016-1,POT,NAIK GRADE
94134011,9413032P3Y,IMAM HIDAYATULLAH,2013-06-01,2016-1,POT,NAIK GRADE
94134012,9413035P3Y,REFI ISKANDAR,2013-06-01,2016-1,POT,NAIK GRADE
94144009,9414010P3Y,MUHAMAD RIDWAN MULYANA,2014-07-01,2016-1,OPT,
94144010,9414011P3Y,SARIN,2014-07-01,2016-1,POT,
94144013,9414014P3Y,ALDI RINALDI SUTISNA,2014-07-01,2016-1,POT,
94144014,9414015P3Y,AZI FAHMI NAWAWI,2014-07-01,2016-1,POT,
94144022,9414023P3Y,YUSRON DWI DARMAWAN,2014-07-01,2016-1,OPT,
94144027,9414028P3Y,DEKI PURNAMA,2014-07-01,2016-1,POT,
94144032,9414033P3Y,SONIE SETIANA,2014-07-01,2016-1,POT,
94164000,9416338ZY,TUNGGUL FRANCISKO,2016-01-01,2016-1,POT,
94164100,94161043ZY,AGUNG ALIFSAG NUR,2016-02-01,2016-1,POT,
95144038,9514039P3Y,MUHAMMAD RADIANSYAH,2014-07-01,2016-1,SPO,
95144043,9514044P3Y,VICTOR LUMBAN TOBING,2014-07-01,2016-1,POT,
95144044,9514045P3Y,NANA ROSANA,2014-07-01,2016-1,OPT,
95144045,9514046P3Y,PRISMA PANJI PRATAMA,2014-07-01,2016-1,OPT,
95144046,9514047P3Y,FAJAR RAMADHAN PRATAMA,2014-07-01,2016-1,POT,
95144060,9514061P3Y,SYAIFUL M.H.,2014-07-01,2016-1,OPT,
95144062,9514063P3Y,AGUS NURJAMAN,2014-07-01,2016-1,POT,
95144063,9514064P3Y,HAMZAH MUNTOHA,2014-07-01,2016-1,OPT,
95144064,9514065P3Y,ALFIAN EDO MAMORA,2014-07-01,2016-1,POT,
95144067,9514068P3Y,RIDWAN GINANJAR,2014-07-01,2016-1,POT,
95144072,9514073P3Y,DENDI KRISANDI,2014-07-01,2016-1,SPO,
95154012,9515027P3Y,KOKO HERI WIJANARKO,2015-12-01,2016-1,POT,
95154013,9515028P3Y,MOCH AGUS RIYANTO,2015-12-01,2016-1,POT,
95154014,9515029P3Y,RADHIKA ABDY SURYA ARIOTOMO,2015-12-01,2016-1,POT,
95154015,9515030P3Y,YOGA MUHAMMAD TAUVIQ,2015-12-01,2016-1,POT,
95154016,9515034P3Y,MUCHLIS DWI PRASETYO PUTRA,2015-12-01,2016-1,POT,
95154017,9515035P3Y,MUHAMMAD SHOFI AULAL MUBAROK,2015-12-01,2016-1,POT,
95154018,9515036P3Y,REFKI ARIF NUGROHO,2015-12-01,2016-1,SPO,
95154019,9515037P3Y,MUHAMMAD WILDAN SANI,2015-12-01,2016-1,POT,
95154020,9515040P3Y,JUNIYANTO,2015-12-01,2016-1,POT,
95154021,9515041P3Y,M. FACHRUR ROZI,2015-12-01,2016-1,POT,
95154022,9515044P3Y,ANTONIUS RUDI SETIYANTO,2015-12-01,2016-1,POT,
95154023,9515046P3Y,MUHAMMAD YUSUF BONE,2015-12-01,2016-1,POT,
95154024,9515048P3Y,WIN CANDRA STYADI,2015-12-01,2016-1,POT,
96154000,9615001P3Y,BAYU DIRGANTARA,2015-08-01,2016-1,OPT,
96154001,9615002P3Y,CECEP LUTFI LUKMANUL HAKIM,2015-08-01,2016-1,OPT,
96154003,9615004P3Y,TEGUH FIRMAN MUNGGARAN,2015-08-01,2016-1,OPT,
96154006,9615007P3Y,NUR ALI,2015-08-01,2016-1,OPT,
96154007,9615008P3Y,S. PURNOMO AJI,2015-08-01,2016-1,OPT,
96154013,9615026P3Y,SEZA HADI SETYAWAN,2015-12-01,2016-1,POT,
96154014,9615031P3Y,GIGIH ARIGHI,2015-12-01,2016-1,OPT,
96154015,9615032P3Y,HARI KURNIAWAN,2015-12-01,2016-1,OPT,
96154016,9615033P3Y,MUHAMMAD IRBAADH,2015-12-01,2016-1,OPT,
96154017,9615038P3Y,AKHMAD JAFAR ROMADLONI,2015-12-01,2016-1,POT,
96154018,9615039P3Y,ANGGA FEBRIYYANTO RHOMHADHON,2015-12-01,2016-1,POT,
96154019,9615042P3Y,MUHAMMAD ILMAN RAMADHAN,2015-12-01,2016-1,POT,
96154020,9615045P3Y,MUH. SANNIYA ISDAHARA FIRDAUS,2015-12-01,2016-1,OPT,
96154021,9615047P3Y,ARPIAN ANGGER PUTRANTO,2015-12-01,2016-1,OPT,
96154022,9615049P3Y,MUHAMMAD FARHAN MAULANA,2015-12-01,2016-1,SPO,
97154001,9715043P3Y,POPPY RAMA DWI SANJAYA,2015-12-01,2016-1,OPT,
61830004,6183014P2B,JOKO SURYANTO,2016-01-01,2016-1,OPT,
61840001,6184012P2B,SARJITO,2016-01-01,2016-1,POT,
62830006,6283021K3,RUSNARDI,2014-07-01,2016-1,OPT,NAIK LEVEL KOMPETENSI KHUSUS
62830031,6283122K3,IMAM GUNAWARMAN,2014-07-01,2016-1,OPT,
63840076,6384485K3,SUHARGONO,2014-07-01,2016-1,SPO,
64850040,6485069P2B,KAMALUDDIN,2014-01-01,2016-1,SPO,NAIK GRADE
65850063,6585200K3,ALI MURSIDI,2016-01-01,2016-1,OPT,
65850103,6585482K3,A. UNTUNG BOWO PRATOMO,2015-01-01,2016-1,OPT,NAIK GRADE KHUSUS DEFINITIF JAN 2015
66850023,6685476K3,ADEN WAHYUDI,2014-07-01,2016-1,POT,
68930002,6893002P2B,MUHAMMAD ARIEF SAMSUDIN,2014-01-01,2016-1,OPT,
70930038,7093428K3,SUHENDI,2015-01-01,2016-1,OPT,
70940055,7094246K3,R. YUDIANTO,2014-07-01,2016-1,OPT,
72920039,7292177K3,HARJIATNO,2015-01-01,2016-1,SPO,
74930030,7493456K3,HASBULLAH,2014-01-01,2016-1,OPT,
78040004,7804011P3B,NINIL UKHITA ANGGRA WARDANI,2016-01-01,2016-1,OPT,
78068602,7806050Z,BAMBANG SANTOSO,2014-07-01,2016-1,POT,
79057200,7905004D2,SUSANTI LUKMAN,2016-01-01,2016-1,SPO,NAIK GRADE KHUSUS DEFINITF JUL 2015
79064001,7906493Z,TEGUH DWI RAHMANSYAH,2014-07-01,2016-1,OPT,
