Pers.No.,Prev.Per.No.,Full Name,Position,Position,Nama Panjang Posisi,Org.unit,Organizational Unit,PA,Personnel Area,PSubarea,Personnel Subarea,BusA,Business Area,Start Date,PS group,Lv,Tanggal Grade Terakhir,Skala Gaji Dasar,Jenjang - Main Grp Text,Jenjang - Sub Grp Text,Jenjang - Sub Grp ID,Employee Grouping for Travel E,Reimbursement Group for Meals/,Tanggal Masuk,Tanggal CAPEG,Tanggal Pegawai Tetap,Birth date,Employee Group,ESgrp,Employee Subgroup,Payroll Area,Start Date,TAdmin,Administrator for Time Recordi,WS rule,Work Schedule Rule,Bank Account,Work time event type group,Grouping of Attendance/Absence,Grouping for Employee Expenses,ID Number,Age of employee,Golongan Darah,Number of Tax Dependents,Cost Center
60840088,6084653K3,Lala,36203676,AE HAR ALAT PROTEK DAN MTR,ASSISTANT ENGINEER PEMELIHARAAN PERALATAN PROTEKSI DAN METER,16200168,SIE HAR PROTEK DAN MTR,2300,Transmisi JBB,2320,APP Pulogadung,3412,APP Pulogadung,1/1/2016,SPE02,22,7/1/2013,SPE02-29,Fungsional,Fungsional V,05,Group V,Group V,10/1/1984,12/1/1986,10/1/1987,12/18/1960,Aktif,11,Aktif,TJBB - Monthly,1/1/2016,020,Neneng Irianti,NORML1,"7:30-16:00,J: 07:30-16:30",1250007917545,All time events,SAP default 001,SAP default 001,,55,O,Use Family Info,Lola & Har Aset 3412
61810009,6181118K3,Lili,36203602,AN KIN,ANALYST KINERJA,10074951,APP PULOGADUNG,2300,Transmisi JBB,2320,APP Pulogadung,3412,APP Pulogadung,1/1/2016,SYS04,24,7/1/2015,SYS04-31,Fungsional,Fungsional IV,04,Group IV,Group IV,7/1/1981,1/1/1983,6/1/1983,7/30/1961,Aktif,11,Aktif,TJBB - Monthly,1/1/2016,020,Neneng Irianti,NORML1,"7:30-16:00,J: 07:30-16:30",1250007912090,All time events,SAP default 001,SAP default 001,,55,O,Use Family Info,Mnj APP Pulogadung
61810013,6181149K3,Lulu lu,37101665,EG HAR ALAT JARGI,ENGINEER PEMELIHARAAN PERALATAN JARINGAN DAN GARDU INDUK,16200135,BAG LOLA DAN HAR ASET BASECAMP SURALAYA,2300,Transmisi JBB,2340,APP Cilegon,3414,APP Cilegon,1/1/2016,SYS04,24,1/1/2016,SYS04-32,Fungsional,Fungsional IV,04,Group IV,Group IV,8/18/1981,1/1/1983,6/1/1983,8/16/1961,Aktif,11,Aktif,TJBB - Monthly,1/1/2016,,,NORML1,"7:30-16:00,J: 07:30-16:30",1160004561743,All time events,SAP default 001,SAP default 001,3672031608610001,55,AB,Use Family Info,Lola & Har Aset 3414
61810016,6181191K3,LehLe,36203763,AN HK DAN HUMAS,ANALYST HUKUM DAN HUBUNGAN MASYARAKAT,10074950,APP DURI KOSAMBI,2300,Transmisi JBB,2330,APP DuriKosambi,3413,APP Durikosambi,1/1/2016,SYS03,22,7/1/2013,SYS03-32,Fungsional,Fungsional IV,04,Group IV,Group IV,12/16/1981,6/1/1983,6/1/1984,9/18/1961,Aktif,11,Aktif,TJBB - Monthly,1/1/2016,030,Surahman,NORML1,"7:30-16:00,J: 07:30-16:30",0700005696039,All time events,SAP default 001,SAP default 001,3174011809610003,55,O,Use Family Info,Mnj APP Durikosambi
61810018,6181195K3,Lohlo,36203844,EG K2 DAN K3,ENGINEER KESELAMATAN KETENAGALISTRIKAN DAN K3,16200103,BAG LOLA DAN HAR ASET BASECAMP CIKUPA,2300,Transmisi JBB,2330,APP DuriKosambi,3413,APP Durikosambi,1/1/2016,SYS04,25,7/1/2014,SYS04-33,Fungsional,Fungsional IV,04,Group IV,Group IV,12/16/1981,6/1/1983,6/1/1984,10/18/1961,Aktif,11,Aktif,TJBB - Monthly,1/1/2016,030,Surahman,NORML1,"7:30-16:00,J: 07:30-16:30",1550001187643,All time events,SAP default 001,SAP default 001,3603281810610001,55,O,Use Family Info,Lola & Har Aset 3413
61810019,6181220K3,Laila,36203621,EG HAR ALAT JARGI,ENGINEER PEMELIHARAAN PERALATAN JARINGAN DAN GARDU INDUK,16200157,BAG LOLA DAN HAR ASET BASECAMP KARET,2300,Transmisi JBB,2320,APP Pulogadung,3412,APP Pulogadung,1/1/2016,SYS03,25,7/1/2015,SYS03-33,Fungsional,Fungsional IV,04,Group IV,Group IV,12/16/1981,6/1/1983,6/1/1984,2/27/1961,Aktif,11,Aktif,TJBB - Monthly,1/1/2016,020,Neneng Irianti,NORML1,"7:30-16:00,J: 07:30-16:30",1550001175317,All time events,SAP default 001,SAP default 001,,55,B,Use Family Info,Lola & Har Aset 3412
