Pers.No.,Prev_Per_No,Full_Name,Start Date,End Date,Jenjang - Main Grp ID,Jenjang - Main Grp Text,Jenjang - Sub Grp ID,Jenjang - Sub Grp Text,CoCd,Company Code,PA,Personnel Area,EEGrp,Employee Group,ESgrp,Employee Subgroup,Organizational key,BusA,Business Area,PSubarea,Personnel Subarea,Org.unit,Organizational Unit,PositionID,PositionName,JobID,JobName,Job Name,No SK Organizational Assignmen,Tanggal SK Organizational Assi,Kode Jabatan,Kelompok Jabatan,Keterangan Jabatan,Nama Panjang Posisi - SIMKP,PArea,Payroll Area,Nama Panjang Posisi
61810009,,SAMIADI,2001-04-02,2001-05-17,,,,,3100,P3B Jawa Bali,2010,P3B Region Jakarta Banten,1,Aktif,11,Aktif,1010,3113,UPT Jakarta Utara,1010,UPT Jak. Utara,15136047,REGION JAKARTA DAN BANTEN,35136047,PEGAWAI PADA REGION JAKARTA DAN BANTEN,0,,,257.K/010/DIR/2001,4/2/2001,,,,PEGAWAI PADA REGION JAKARTA DAN BANTEN-35136047,50,No Payroll Run,PEGAWAI PADA REGION JAKARTA DAN BANTEN
61810009,,SAMIADI,2001-05-18,2004-12-31,,,,,3100,P3B Jawa Bali,2010,P3B Region Jakarta Banten,1,Aktif,11,Aktif,1010,3113,UPT Jakarta Utara,1010,UPT Jak. Utara,15136048,UNIT PELAYANAN TRANSMISI PULOGADUNG,35136048,JURU UTAMA PEMELIHARAAN PROTEKSI,0,,,186.K/440/GM.UBS-P3B/2001,5/18/2001,,,,JURU UTAMA PEMELIHARAAN PROTEKSI-35136048,50,No Payroll Run,JURU UTAMA PEMELIHARAAN PROTEKSI
61810009,,SAMIADI,2005-01-01,2005-08-21,,,,,3100,P3B Jawa Bali,2010,P3B Region Jakarta Banten,1,Aktif,11,Aktif,1010,3113,UPT Jakarta Utara,1010,UPT Jak. Utara,15136049,UNIT PELAYANAN TRANSMISI PULOGADUNG,35136049,JURU UTAMA PEMELIHARAAN PROTEKSI,0,,,024.K/010/MRJKB/2005,1/1/2005,,,,JURU UTAMA PEMELIHARAAN PROTEKSI-35136049,50,No Payroll Run,JURU UTAMA PEMELIHARAAN PROTEKSI
61810009,,SAMIADI,2005-08-22,2005-12-31,,,,,3100,P3B Jawa Bali,2010,P3B Region Jakarta Banten,1,Aktif,11,Aktif,1010,3113,UPT Jakarta Utara,1010,UPT Jak. Utara,0,,99999999,Integration: default position,0,,,013.K/426/MRJKB/2005,8/22/2005,,,,-99999999,50,No Payroll Run,
61810009,,SAMIADI,2006-01-01,2007-03-31,,,,,3100,P3B Jawa Bali,2010,P3B Region Jakarta Banten,1,Aktif,11,Aktif,1010,3113,UPT Jakarta Utara,1010,UPT Jak. Utara,0,,99999999,Integration: default position,0,,,001.K/430/MRJKB/2006,2/1/2006,,,,-99999999,20,P3B - Monthly,
61810009,,SAMIADI,2007-04-01,2007-12-31,03,Keteknisan dan Operatif (riwayat),05,Terampil Utama,3100,P3B Jawa Bali,2010,P3B Region Jakarta Banten,1,Aktif,11,Aktif,1010,3113,UPT Jakarta Utara,1010,UPT Jak. Utara,15000204,BIDANG RENCANA & EVALUASI,30010442,TU RENCANA PEMELIHARAAN TRANSMISI,25001599,TU Rencana Pemeliharaan Transmisi,TERAMPIL UTAMA Rencana Pemeliharaan Transmisi,0032.K/431/MRJKB/2007,3/6/2007,,,,TERAMPIL UTAMA RENCANA PEMELIHARAAN TRANSMISI-30010442,20,P3B - Monthly,TERAMPIL UTAMA RENCANA PEMELIHARAAN TRANSMISI
61810009,,SAMIADI,2008-01-01,2008-12-31,05,Fungsional,05,Fungsional V,3100,P3B Jawa Bali,2010,P3B Region Jakarta Banten,1,Aktif,11,Aktif,1010,3113,UPT Jakarta Utara,1010,UPT Jak. Utara,15000204,BIDANG RENCANA & EVALUASI,30029844,AE RENCANA PEMELIHARAAN TRANSMISI,0,,,0519.K/426/GMP3BJB/2008,9/1/2008,,,,ASSISTANT ENGINEER RENCANA PEMELIHARAAN TRANSMISI-30029844,20,P3B - Monthly,ASSISTANT ENGINEER RENCANA PEMELIHARAAN TRANSMISI
61810009,,SAMIADI,2009-01-01,2009-06-30,04,Struktural,05,Supervisori Dasar,3100,P3B Jawa Bali,2010,P3B Region Jakarta Banten,1,Aktif,11,Aktif,1010,3113,UPT Jakarta Utara,1010,UPT Jak. Utara,15000218,GI PULOGADUNG,30056116,SPV GARDU INDUK PULOGADUNG,25000742,SPV GARDU INDUK,Supervisor Operasi Penyaluran,0002.K/426/GM.P3BJB/2009,1/19/2009,,,,SUPERVISOR GARDU INDUK PULOGADUNG-30056116,20,P3B - Monthly,SUPERVISOR GARDU INDUK PULOGADUNG
61810009,,SAMIADI,2009-07-01,2010-11-30,04,Struktural,05,Supervisori Dasar,3100,P3B Jawa Bali,2010,P3B Region Jakarta Banten,1,Aktif,11,Aktif,1010,3113,UPT Jakarta Utara,1010,UPT Jak. Utara,10025938,GI PULOGADUNG,30061300,SPV TRANSMISI DAN GARDU INDUK PULOGADUNG,29000215,SPV Operasi Penyaluran,Supervisor Operasi Penyaluran,0212.K/426/GM.P3BJB/2009,6/22/2009,,,,SUPERVISOR  TRANSMISI DAN GARDU INDUK PULOGADUNG-30061300,20,P3B - Monthly,SUPERVISOR  TRANSMISI DAN GARDU INDUK PULOGADUNG
61810009,,SAMIADI,2010-12-01,2012-03-31,04,Struktural,05,Supervisori Dasar,3100,P3B Jawa Bali,2010,P3B Region Jakarta Banten,1,Aktif,11,Aktif,1010,3113,UPT Jakarta Utara,1010,UPT Jak. Utara,10045147,SUB BIDANG PENGELOLAAN DATA,30095258,SPV PENGELOLAAN DATA,29000199,SPV Administrasi,Supervisor Administrasi,9190.K/426/GM.P3BJB/2010,11/5/2010,,,,SUPERVISOR PENGELOLAAN DATA-30095258,20,P3B - Monthly,SUPERVISOR PENGELOLAAN DATA
61810009,,SAMIADI,2012-04-01,2013-09-30,04,Struktural,05,Supervisori Dasar,3100,P3B Jawa Bali,2000,P3B Jawa Bali Kantor Induk,1,Aktif,11,Aktif,2020,3125,APP PULOGADUNG,2020,APP PULOGADUNG,10052423,SUB BIDANG PENGELOLAAN DATA,30122001,SPV PENGELOLAAN DATA,29000301,SPV  PENGELOLAAN DATA,,0148.K/426/GM.P3BJB/2012,3/7/2012,,,,SUPERVISOR PENGELOLAAN DATA-30122001,20,P3B - Monthly,SUPERVISOR PENGELOLAAN DATA
61810009,,SAMIADI,2013-10-01,2015-06-30,04,Struktural,05,Supervisori Dasar,3100,P3B Jawa Bali,2000,P3B Jawa Bali Kantor Induk,1,Aktif,11,Aktif,2020,3125,APP PULOGADUNG,2020,APP PULOGADUNG,10062284,SIE PENGELOLAAN DATA,30158502,SPV PENGELOLAAN DATA,29000301,SPV  PENGELOLAAN DATA,,8399.K/426/GM.P3BJB/2013,10/7/2013,,,,SUPERVISOR PENGELOLAAN DATA-30158502,20,P3B - Monthly,SUPERVISOR PENGELOLAAN DATA
61810009,,SAMIADI,2015-07-01,2015-12-31,05,Fungsional,04,Fungsional IV,3100,P3B Jawa Bali,2000,P3B Jawa Bali Kantor Induk,1,Aktif,11,Aktif,2020,3125,APP PULOGADUNG,2020,APP PULOGADUNG,10052421,APP PULOGADUNG,30121696,AN KIN,28000226,AN BISNIS KORPORASI,Analyst Bisnis Korporasi,8011K/SDM.00.03/GM.P3BJB/2015,8/31/2015,,,,ANALYST KINERJA-30121696,20,P3B - Monthly,ANALYST KINERJA
61810009,,SAMIADI,2016-01-01,9999-12-31,05,Fungsional,04,Fungsional IV,3400,Transmisi JBB,2300,Transmisi JBB,1,Aktif,11,Aktif,2320,3412,APP Pulogadung,2320,APP Pulogadung,10074951,APP PULOGADUNG,36203602,AN KIN,0,,Analyst Bisnis Korporasi,1701.K/SDM.00.03/DIR/2015,10/27/2015,,,,ANALYST KINERJA-36203602,77,TJBB - Monthly,ANALYST KINERJA
61810013,,KURNIANTO,2001-04-02,2001-05-17,,,,,3100,P3B Jawa Bali,2010,P3B Region Jakarta Banten,1,Aktif,11,Aktif,1080,3111,UPT Banten,1080,UPT Banten,15136070,REGION JAKARTA DAN BANTEN,35136070,PEGAWAI PADA REGION JAKARTA DAN BANTEN,0,,,257.K/010/DIR/2001,4/2/2001,,,,PEGAWAI PADA REGION JAKARTA DAN BANTEN-35136070,50,No Payroll Run,PEGAWAI PADA REGION JAKARTA DAN BANTEN
61810013,,KURNIANTO,2001-05-18,2004-12-31,,,,,3100,P3B Jawa Bali,2010,P3B Region Jakarta Banten,1,Aktif,11,Aktif,1080,3111,UPT Banten,1080,UPT Banten,15136071,UNIT PELAYANAN TRANSMISI SURALAYA,35136071,OPERATOR UTAMA GARDU INDUK,0,,,186.K/440/GM.UBS-P3B/2001,5/18/2001,,,,OPERATOR UTAMA GARDU INDUK-35136071,50,No Payroll Run,OPERATOR UTAMA GARDU INDUK
61810013,,KURNIANTO,2005-01-01,2005-08-17,,,,,3100,P3B Jawa Bali,2010,P3B Region Jakarta Banten,1,Aktif,11,Aktif,1080,3111,UPT Banten,1080,UPT Banten,15136072,UNIT PELAYANAN TRANSMISI SURALAYA,35136072,OPERATOR UTAMA GARDU INDUK,0,,,028.K/010/MRJKB/2005,1/1/2005,,,,OPERATOR UTAMA GARDU INDUK-35136072,50,No Payroll Run,OPERATOR UTAMA GARDU INDUK
61810013,,KURNIANTO,2005-08-18,2005-12-31,,,,,3100,P3B Jawa Bali,2010,P3B Region Jakarta Banten,1,Aktif,11,Aktif,1080,3111,UPT Banten,1080,UPT Banten,0,,99999999,Integration: default position,0,,,004.K/426/MRJKB/2005,8/18/2005,,,,-99999999,50,No Payroll Run,
61810013,,KURNIANTO,2006-01-01,2007-03-31,,,,,3100,P3B Jawa Bali,2010,P3B Region Jakarta Banten,1,Aktif,11,Aktif,1080,3111,UPT Banten,1080,UPT Banten,0,,99999999,Integration: default position,0,,,001.K/430/MRJKB/2006,2/1/2006,,,,-99999999,20,P3B - Monthly,
61810013,,KURNIANTO,2007-04-01,2007-12-31,03,Keteknisan dan Operatif (riwayat),05,Terampil Utama,3100,P3B Jawa Bali,2010,P3B Region Jakarta Banten,1,Aktif,11,Aktif,1080,3111,UPT Banten,1080,UPT Banten,15000170,GI & GITET SURALAYA,30015945,TU OPERATOR GARDU INDUK,25001623,TU Operator Gardu Induk,TERAMPIL UTAMA Operator Gardu Induk,0030.K/431/MRJKB/2007,3/12/2007,,,,TERAMPIL UTAMA OPERATOR GARDU INDUK-30015945,20,P3B - Monthly,TERAMPIL UTAMA OPERATOR GARDU INDUK
61810013,,KURNIANTO,2008-01-01,2008-12-31,05,Fungsional,05,Fungsional V,3100,P3B Jawa Bali,2010,P3B Region Jakarta Banten,1,Aktif,11,Aktif,1080,3111,UPT Banten,1080,UPT Banten,15000170,GI & GITET SURALAYA,30034783,AO GARDU INDUK,0,,,0517.K/426/GMP3BJB/2008,9/1/2008,,,,ASSISTANT OPERATOR GARDU INDUK-30034783,20,P3B - Monthly,ASSISTANT OPERATOR GARDU INDUK
61810013,,KURNIANTO,2009-01-01,2009-06-30,04,Struktural,05,Supervisori Dasar,3100,P3B Jawa Bali,2010,P3B Region Jakarta Banten,1,Aktif,11,Aktif,1080,3111,UPT Banten,1080,UPT Banten,15000169,GI SALIRA INDAH,30056117,SPV GARDU INDUK SALIRA INDAH,25000742,SPV GARDU INDUK,Supervisor Operasi Penyaluran,0002.K/426/GM.P3BJB/2009,1/19/2009,,,,SUPERVISOR GARDU INDUK SALIRA INDAH-30056117,20,P3B - Monthly,SUPERVISOR GARDU INDUK SALIRA INDAH
61810013,,KURNIANTO,2009-07-01,2010-11-30,04,Struktural,05,Supervisori Dasar,3100,P3B Jawa Bali,2010,P3B Region Jakarta Banten,1,Aktif,11,Aktif,1080,3111,UPT Banten,1080,UPT Banten,10025025,GI SALIRA INDAH,30061543,SPV TRANSMISI DAN GARDU INDUK SLRINDAH,29000215,SPV Operasi Penyaluran,Supervisor Operasi Penyaluran,0210.K/426/GM.P3BJB/2009,6/22/2009,,,,SUPERVISOR  TRANSMISI DAN GARDU INDUK SALIRA INDAH-30061543,20,P3B - Monthly,SUPERVISOR  TRANSMISI DAN GARDU INDUK SALIRA INDAH
61810013,,KURNIANTO,2010-12-01,2012-03-31,05,Fungsional,05,Fungsional V,3100,P3B Jawa Bali,2010,P3B Region Jakarta Banten,1,Aktif,11,Aktif,1080,3111,UPT Banten,1080,UPT Banten,15000167,BIDANG OPHAR,30092471,AE PEMELIHARAAN GARDU INDUK,28000053,AE PELIHARA TRANSMISI DAN GARDU INDUK,Assistant Engineer Pemeliharaan Transmisi dan Gardu Induk,9193.K/426/GM.P3BJB/2010,11/5/2010,,,,ASSISTANT ENGINEER PEMELIHARAAN GARDU INDUK-30092471,20,P3B - Monthly,ASSISTANT ENGINEER PEMELIHARAAN GARDU INDUK
61810013,,KURNIANTO,2012-04-01,2013-09-30,05,Fungsional,05,Fungsional V,3100,P3B Jawa Bali,2000,P3B Jawa Bali Kantor Induk,1,Aktif,11,Aktif,2040,3127,APP CILEGON,2040,APP CILEGON,10052169,SUB BIDANG HAR JARGI  BASECAMP SURALAYA,30124946,AE HAR PERALATAN GARDU INDUK,28000053,AE PELIHARA TRANSMISI DAN GARDU INDUK,Assistant Engineer Pemeliharaan Transmisi dan Gardu Induk,0162.K/426/GM.P3BJB/2012,3/7/2012,,,,ASSISTANT ENGINEER PEMELIHARAAN PERALATAN GARDU INDUK-30124946,20,P3B - Monthly,ASSISTANT ENGINEER PEMELIHARAAN PERALATAN GARDU INDUK
61810013,,KURNIANTO,2013-10-01,2015-12-31,05,Fungsional,05,Fungsional V,3100,P3B Jawa Bali,2000,P3B Jawa Bali Kantor Induk,1,Aktif,11,Aktif,2040,3127,APP CILEGON,2040,APP CILEGON,10060796,SIE PEMELIHARAAN GARDU INDUK,30152998,AE PEMELIHARAAN PERALATAN GARDU INDUK,28000053,AE PELIHARA TRANSMISI DAN GARDU INDUK,Assistant Engineer Pemeliharaan Transmisi dan Gardu Induk,8402.K/426/GM.P3BJB/2013,10/7/2013,,,,ASSISTANT ENGINEER PEMELIHARAAN PERALATAN GARDU INDUK-30152998,20,P3B - Monthly,ASSISTANT ENGINEER PEMELIHARAAN PERALATAN GARDU INDUK
61810013,,KURNIANTO,2016-01-01,2017-01-31,05,Fungsional,04,Fungsional IV,3400,Transmisi JBB,2300,Transmisi JBB,1,Aktif,11,Aktif,2340,3414,APP Cilegon,2340,APP Cilegon,16200135,BAG LOLA DAN HAR ASET BASECAMP SURALAYA,37101665,EG HAR ALAT JARGI,0,,,1024.K/SDM.00.03/GM.TJBB/2016,6/27/2016,,,,ENGINEER PEMELIHARAAN PERALATAN JARINGAN DAN GARDU INDUK-37101665,77,TJBB - Monthly,ENGINEER PEMELIHARAAN PERALATAN JARINGAN DAN GARDU INDUK
61810013,,KURNIANTO,2017-02-01,9999-12-31,05,Fungsional,04,Fungsional IV,3400,Transmisi JBB,2300,Transmisi JBB,1,Aktif,11,Aktif,2340,3414,APP Cilegon,2340,APP Cilegon,10074953,APP CILEGON,30236459,EG SAFETY ENGINEER,28000196,EG LINGKUNGAN DAN K2,Engineer Lingkungan dan K2,0038.K/SDM.00.03/GM.TJBB/2017,1/19/2017,,,,ENGINEER SAFETY ENGINEER-30236459,77,TJBB - Monthly,ENGINEER SAFETY ENGINEER
