Pers.No.,Start Date
61810009,2016-01-01
61810013,2016-01-01
61810016,2016-07-01
61810018,2016-01-01
61810019,2016-01-01
61820088,2016-01-01
61820092,2016-07-01
61830004,2016-02-01
61830007,2016-01-01
61830009,2016-06-01
61830011,2016-05-01
61830012,2016-01-01
61830014,2016-07-01
61830015,2016-01-01
61830016,2016-01-01
61840001,2016-05-01
61840020,2016-01-01
61840049,2016-01-01
61840050,2016-01-01
61840052,2017-01-01
61840053,2016-01-01
61840060,2016-01-01
61840061,2016-01-01
61840062,2016-01-01
61840073,2016-01-01
61840074,2016-05-01
61840075,2016-05-01
61840076,2016-01-01
61840083,2016-07-01
61840087,2016-07-01
61840089,2016-07-01
61840090,2016-07-01
61840095,2016-01-01
61850033,2016-05-01
61850035,2016-01-01
61850075,2016-01-01
61850082,2016-07-01
61850107,2016-01-01
61850108,2016-01-01
61850110,2016-01-01
61850111,2016-07-01
61850117,2016-07-01
62810005,2016-07-01
62810009,2016-01-01
62810010,2016-01-01
62810012,2016-01-01
62810013,2016-01-01
62810014,2016-01-01
62810016,2016-01-01
62810017,2016-01-01
62810018,2016-01-01
62820020,2016-07-01
62820097,2016-01-01
62820099,2016-03-01
62827008,2016-10-01
62830005,2016-01-01
62830006,2016-10-01
62830013,2016-01-01
62830018,2016-01-01
62830031,2016-02-01
62830032,2016-01-01
62830059,2016-07-01
62830060,2016-07-01
62830063,2016-01-01
62830064,2016-01-01
62830070,2016-01-01
62830075,2016-01-01
62840015,2016-01-01
62840017,2016-01-01
62840018,2016-07-01
62840021,2016-01-01
62840026,2016-01-01
62840043,2016-01-01
62840050,2016-07-01
62840059,2016-01-01
62840061,2016-01-01
62840065,2016-01-01
62840066,2016-03-01
62840068,2016-01-01
62840078,2016-01-01
62840079,2016-07-01
62840089,2016-07-01
62840090,2016-01-01
62840091,2016-01-01
62840094,2016-01-01
62840096,2016-01-01
62840100,2016-01-01
62840101,2016-01-01
62840104,2016-01-01
62850024,2016-12-01
62850088,2016-01-01
62850089,2016-01-01
62850094,2016-01-01
62850104,2016-07-01
62850106,2016-07-01
62850122,2016-01-01
62850123,2016-01-01
62850124,2016-01-01
62850140,2016-01-01
62850142,2016-01-01
62850154,2016-01-01
62890005,2016-01-01
62890008,2016-01-01
62920000,2016-07-01
63810005,2016-01-01
63810006,2016-01-01
63820027,2016-07-01
63820035,2016-12-01
63830003,2016-01-01
63830006,2016-01-01
63830008,2016-07-01
63830023,2016-01-01
63830040,2016-01-01
63830046,2016-01-01
63830050,2016-07-01
63840026,2016-01-01
63840057,2016-07-01
63840060,2016-01-01
63840066,2016-05-01
63840076,2016-05-01
63840088,2016-01-01
63840090,2016-07-01
63840092,2016-01-01
63840093,2016-07-01
63840096,2016-01-01
63840097,2016-01-01
63840102,2016-01-01
63850036,2017-01-01
63850041,2016-02-01
63850050,2016-01-01
63850105,2016-07-01
63850111,2016-01-01
63850131,2016-01-01
63850132,2016-01-01
63850133,2016-01-01
63850152,2016-01-01
63850153,2016-01-01
63850154,2016-07-01
63850159,2016-01-01
63850163,2016-01-01
63850165,2016-01-01
63860009,2016-07-01
63860011,2016-01-01
63890008,2016-01-01
63910005,2016-01-01
63910009,2016-07-01
63920014,2016-07-01
63930018,2016-07-01
64810001,2016-01-01
64820000,2016-01-01
64820011,2016-07-01
64830013,2016-07-01
64840011,2016-01-01
64840023,2016-01-01
64840047,2016-06-01
64840048,2016-01-01
64840050,2016-01-01
64840052,2016-01-01
64840054,2016-07-01
64840057,2016-07-01
64850030,2016-01-01
64850040,2016-07-01
64850048,2016-01-01
64850050,2016-01-01
64850109,2016-01-01
64850110,2016-07-01
64850131,2016-01-01
64850133,2016-07-01
64850134,2016-07-01
64850136,2016-01-01
64850153,2016-01-01
64850154,2016-07-01
64850160,2016-10-01
64860008,2016-01-01
64880001,2016-01-01
64880002,2016-01-01
64880003,2016-01-01
64880006,2016-01-01
64880011,2016-01-01
64890001,2016-01-01
64890002,2016-01-01
64890010,2016-01-01
64910014,2016-01-01
65830000,2016-01-01
65840009,2016-01-01
65840022,2016-01-01
65840024,2016-07-01
65840026,2016-01-01
65850011,2016-01-01
65850012,2016-07-01
65850015,2016-01-01
65850018,2016-01-01
65850063,2016-05-01
65850064,2016-01-01
65850075,2016-07-01
65850081,2016-01-01
65850088,2016-07-01
65850100,2016-03-01
65850103,2016-07-01
65857400,2016-07-01
65880023,2016-01-01
65880024,2016-01-01
66840008,2016-01-01
66840009,2016-01-01
66840010,2016-01-01
66850002,2016-07-01
66850021,2016-01-01
66850023,2016-06-01
66850027,2016-01-01
66850028,2016-01-01
66860007,2016-01-01
66880000,2016-01-01
66880009,2016-01-01
66880010,2016-01-01
66890006,2016-01-01
66910022,2016-07-01
67850003,2016-05-01
67860002,2016-01-01
67880000,2016-01-01
67880002,2016-01-01
67880009,2016-01-01
67890008,2016-01-01
67890009,2016-01-01
67890010,2016-07-01
67920001,2016-01-01
67920005,2016-07-01
67920007,2016-01-01
67920026,2016-03-01
67920028,2016-01-01
67920029,2016-01-01
67920036,2016-07-01
67920039,2016-01-01
67920041,2016-01-01
67920046,2016-01-01
67930020,2016-05-01
67930026,2016-01-01
67940003,2016-01-01
68860000,2016-07-01
68880004,2016-01-01
68880009,2016-01-01
68900007,2016-07-01
68910014,2016-01-01
68920004,2016-07-01
68920006,2016-01-01
68920023,2016-01-01
68920024,2016-01-01
68920025,2016-01-01
68920033,2016-01-01
68920035,2016-07-01
68930002,2016-10-01
68930004,2016-07-01
68930006,2016-07-01
68930015,2016-01-01
68930016,2016-07-01
68930018,2016-07-01
68930019,2016-07-01
68930023,2016-01-01
68930036,2016-01-01
69890003,2016-07-01
69890004,2016-07-01
69910015,2016-01-01
69910016,2016-01-01
69910021,2016-07-01
69910031,2016-01-01
69920001,2016-01-01
69920005,2016-01-01
69920007,2016-07-01
69920008,2016-01-01
69920015,2016-01-01
69920017,2016-07-01
69920021,2016-01-01
69920027,2016-07-01
69920029,2016-01-01
69920034,2016-01-01
69920041,2016-01-01
69930015,2016-01-01
69930016,2016-07-01
69930017,2016-12-01
69930031,2016-07-01
69930033,2016-01-01
69930037,2016-01-01
69930038,2016-01-01
69930039,2016-07-01
69940004,2016-07-01
69940016,2016-01-01
69940028,2016-05-01
69940029,2016-07-01
69940032,2016-01-01
69940033,2016-07-01
69940034,2016-07-01
69940037,2016-01-01
70890000,2016-01-01
70910014,2016-07-01
70920001,2016-01-01
70920008,2016-07-01
70920012,2016-01-01
70920014,2016-01-01
70920019,2016-07-01
70920020,2016-10-01
70920021,2016-01-01
70920023,2016-07-01
70920024,2016-01-01
70920025,2016-01-01
70920039,2016-07-01
70920042,2016-01-01
70920045,2016-10-01
70920048,2016-09-01
70930003,2016-01-01
70930021,2016-03-01
70930023,2016-01-01
70930024,2016-01-01
70930030,2016-05-01
70930032,2016-01-01
70930035,2016-01-01
70930036,2016-01-01
70930037,2016-12-01
70930038,2016-06-01
70930039,2016-01-01
70930040,2016-05-01
70930046,2016-01-01
70940007,2016-01-01
70940021,2016-01-01
70940028,2016-01-01
70940031,2016-01-01
70940040,2016-01-01
70940046,2016-01-01
70940047,2016-07-01
70940053,2016-01-01
70940055,2016-07-01
70940056,2016-01-01
70940060,2016-01-01
70940061,2016-01-01
70940062,2016-07-01
70940063,2016-07-01
70943407,2016-01-01
71910012,2016-07-01
71920002,2016-02-01
71920004,2016-07-01
71920011,2016-07-01
71920017,2016-01-01
71920019,2016-01-01
71920031,2016-01-01
71920034,2017-01-01
71920035,2016-01-01
71920036,2016-01-01
71920037,2016-01-01
71920039,2016-01-01
71920040,2016-07-01
71920043,2016-06-01
71920045,2016-01-01
71920047,2016-07-01
71930028,2016-01-01
71930031,2016-01-01
71930044,2016-01-01
71930045,2016-01-01
71930049,2016-01-01
71930051,2016-07-01
71930052,2016-01-01
71930053,2016-01-01
71930055,2016-07-01
71930058,2016-07-01
71930059,2016-01-01
71940006,2016-01-01
71940010,2016-01-01
71940012,2016-07-01
71940028,2016-01-01
71940031,2016-07-01
71940036,2016-01-01
71940037,2016-01-01
71940040,2016-07-01
71940041,2016-01-01
71940044,2017-01-01
71940053,2017-01-01
71940056,2016-01-01
71940060,2016-07-01
71940063,2016-01-01
71940065,2016-07-01
71940066,2016-07-01
71940068,2016-01-01
71940069,2016-07-01
71940072,2016-07-01
71940075,2016-07-01
71940078,2016-07-01
72920001,2016-01-01
72920003,2016-01-01
72920010,2016-01-01
72920012,2016-01-01
72920014,2016-07-01
72920015,2016-01-01
72920019,2016-01-01
72920020,2016-03-01
72920035,2016-03-01
72920039,2016-05-01
72920041,2016-02-01
72920044,2016-01-01
72930027,2016-03-01
72930028,2016-07-01
72930032,2016-01-01
72930041,2016-07-01
72930042,2016-01-01
72930051,2016-01-01
72930054,2016-01-01
72930056,2016-01-01
72930057,2016-02-01
72930060,2016-07-01
72930071,2016-01-01
72930074,2016-01-01
72940012,2016-07-01
72940036,2016-01-01
72940042,2016-01-01
72940043,2016-07-01
72940056,2016-01-01
72940060,2016-05-01
72940062,2016-01-01
72940066,2016-07-01
72940067,2016-01-01
72940071,2016-01-01
72940076,2016-07-01
72940077,2016-01-01
73920001,2016-07-01
73920005,2016-07-01
73920017,2016-01-01
73930030,2016-02-01
73930035,2016-01-01
73930037,2016-05-01
73930038,2016-07-01
73930039,2016-01-01
73930041,2016-12-01
73930042,2016-01-01
73930056,2016-01-01
73930057,2016-11-01
73930058,2016-01-01
73930059,2016-01-01
73930060,2016-01-01
73930063,2016-01-01
73930065,2016-01-01
73930066,2016-01-01
73930069,2016-07-01
73930073,2016-07-01
73930074,2016-01-01
73930075,2016-03-01
73930077,2016-01-01
73930078,2016-07-01
73930079,2016-01-01
73930080,2016-01-01
73930081,2016-01-01
73930082,2016-05-01
73930084,2016-01-01
73940013,2016-07-01
73940032,2016-01-01
73940034,2016-07-01
73940039,2016-07-01
73940044,2017-01-01
73940046,2016-01-01
73940048,2016-07-01
73940051,2016-01-01
73940069,2016-01-01
73940070,2016-01-01
73940071,2016-07-01
73940073,2017-01-01
73940077,2016-01-01
73940079,2016-03-01
73940080,2016-01-01
73940084,2016-01-01
74930003,2016-07-01
74930012,2016-05-01
74930013,2016-01-01
74930020,2016-07-01
74930021,2016-07-01
74930023,2016-11-01
74930025,2016-07-01
74930026,2017-01-01
74930027,2016-01-01
74930030,2016-05-01
74930032,2016-07-01
74930039,2016-07-01
74940005,2016-01-01
74940025,2016-05-01
74940026,2016-01-01
74940036,2016-07-01
74940039,2016-01-01
74940043,2016-01-01
74940045,2016-03-01
74940046,2016-07-01
74940048,2016-06-01
74940049,2016-01-01
74940051,2016-07-01
74940056,2016-01-01
74940065,2016-01-01
74940068,2016-01-01
74940070,2016-01-01
74940072,2016-01-01
74940079,2016-07-01
74940082,2016-01-01
74940083,2016-01-01
74940084,2016-07-01
74940085,2016-01-01
74940089,2016-01-01
75930000,2016-03-01
75930001,2016-07-01
75930006,2016-01-01
75930007,2016-01-01
75940014,2016-07-01
75940015,2016-02-01
75940021,2017-01-01
75940023,2016-01-01
75940025,2016-03-01
75940026,2016-01-01
75940028,2016-05-01
75940031,2016-07-01
78030002,2016-01-01
78040004,2016-01-01
78068602,2016-06-01
79030001,2016-07-01
79040007,2016-01-01
79040008,2016-07-01
79053801,2016-10-01
79057200,2016-07-01
79061600,2016-02-01
79064001,2016-02-01
79064003,2016-02-01
79064004,2016-01-01
80030002,2016-07-01
80030003,2016-01-01
80050008,2016-01-01
80061603,2016-01-01
80064019,2016-10-01
81058600,2016-02-01
81064021,2016-01-01
81064029,2016-07-01
81084645,2016-01-01
82040016,2016-07-01
82064030,2016-10-01
82064200,2016-01-01
82064202,2016-05-01
82064204,2016-01-01
82064209,2016-01-01
82104201,2016-01-01
83064032,2016-07-01
83064210,2016-07-01
83074200,2016-07-01
83074204,2016-01-01
83074206,2016-01-01
83074207,2017-01-01
84040014,2016-05-01
84040019,2016-07-01
84064212,2016-07-01
84074203,2016-03-01
84074208,2016-07-01
84094003,2016-07-01
85040003,2016-06-01
85040004,2016-05-01
85074205,2016-01-01
85084275,2016-01-01
85084280,2016-01-01
85084441,2016-01-01
85090001,2016-01-01
85094000,2016-01-01
85094003,2016-05-01
85094601,2016-05-01
85104201,2016-01-01
85114001,2016-01-01
86074201,2016-01-01
86084225,2016-01-01
86084231,2016-01-01
86084248,2016-01-01
86084253,2016-01-01
86084261,2016-01-01
86084271,2016-01-01
86084288,2016-01-01
86094000,2016-10-01
86094200,2016-01-01
86094210,2016-01-01
86094251,2017-01-01
86094262,2016-01-01
86096803,2016-05-01
86104002,2016-06-01
86104200,2016-03-01
86114000,2016-05-01
86114001,2016-07-01
87084211,2016-01-01
87084220,2016-01-01
87084266,2016-01-01
87084272,2016-01-01
87084274,2016-07-01
87084283,2016-01-01
87094206,2016-05-01
87094212,2016-01-01
87094220,2016-01-01
87094242,2016-01-01
87094243,2016-01-01
87094244,2016-01-01
87094245,2016-01-01
87094257,2016-01-01
87094259,2016-01-01
87094260,2016-01-01
87104003,2016-07-01
87104200,2016-01-01
87104202,2016-01-01
87114201,2016-01-01
88084205,2016-01-01
88084207,2016-01-01
88084210,2016-01-01
88084212,2016-01-01
88084221,2016-01-01
88084230,2016-07-01
88084233,2016-07-01
88084234,2016-01-01
88084251,2016-01-01
88084256,2016-01-01
88084258,2016-07-01
88084260,2016-01-01
88084263,2016-01-01
88084267,2016-01-01
88084268,2016-01-01
88084269,2016-01-01
88084270,2016-01-01
88084273,2016-01-01
88084276,2016-01-01
88084278,2016-01-01
88084279,2016-01-01
88084281,2016-01-01
88084282,2016-01-01
88084284,2016-01-01
88094201,2016-01-01
88094203,2016-01-01
88094205,2016-01-01
88094208,2016-01-01
88094218,2016-01-01
88094228,2016-01-01
88094236,2017-01-01
88094249,2016-01-01
88100009,2016-07-01
88104200,2016-07-01
88104201,2016-01-01
88104203,2016-01-01
88104209,2016-01-01
88104212,2016-01-01
88114000,2016-01-01
88114200,2016-10-01
88124002,2016-01-01
89084201,2016-01-01
89084202,2016-01-01
89084203,2016-10-01
89084204,2016-01-01
89084208,2016-01-01
89084209,2016-10-01
89084213,2016-01-01
89084214,2016-01-01
89084215,2016-01-01
89084217,2016-01-01
89084218,2016-01-01
89084219,2016-01-01
89084222,2016-01-01
89084223,2016-12-01
89084224,2016-01-01
89084226,2016-01-01
89084227,2016-01-01
89084228,2016-01-01
89084232,2016-01-01
89084250,2016-03-01
89084254,2016-01-01
89084262,2016-01-01
89084264,2016-01-01
89084277,2016-01-01
89084285,2016-01-01
89084286,2016-01-01
89084287,2016-01-01
89084289,2016-01-01
89094200,2016-01-01
89094207,2016-10-01
89094216,2016-01-01
89094221,2016-01-01
89094222,2016-01-01
89094230,2016-01-01
89094235,2016-01-01
89094247,2016-01-01
89094250,2016-03-01
89094256,2016-01-01
89094258,2016-01-01
89094431,2016-01-01
89104200,2016-01-01
89104202,2016-01-01
89114200,2016-01-01
89114201,2016-01-01
89134000,2016-01-01
89154001,2016-01-01
89154002,2016-01-01
90084206,2016-01-01
90084216,2016-01-01
90084265,2016-01-01
90094202,2016-05-01
90094209,2016-01-01
90094213,2016-01-01
90094215,2016-01-01
90094217,2016-07-01
90094219,2016-01-01
90094223,2016-01-01
90094229,2016-01-01
90094231,2016-03-01
90094233,2016-01-01
90094234,2016-01-01
90094238,2016-01-01
90094239,2016-01-01
90094240,2016-01-01
90094248,2016-07-01
90094252,2016-01-01
90094253,2016-01-01
90094254,2016-01-01
90094255,2016-03-01
90104208,2016-05-01
90104214,2016-01-01
90104216,2016-01-01
90104218,2016-03-01
90104219,2016-01-01
90134001,2016-01-01
90140404,2016-01-01
90144000,2016-01-01
90144003,2016-01-01
90154011,2016-01-01
90154012,2016-01-01
90154014,2016-05-01
90154017,2016-01-01
90154022,2016-01-01
90154026,2016-01-01
90164001,2016-05-01
90164100,2016-05-01
90164101,2016-06-01
91094211,2016-01-01
91094237,2016-01-01
91104205,2016-01-01
91104210,2016-01-01
91104211,2016-01-01
91104213,2016-01-01
91104217,2016-01-01
91104403,2016-01-01
91124002,2016-01-01
91124006,2016-01-01
91144004,2016-01-01
91154001,2016-07-01
91154004,2016-01-01
91154008,2016-01-01
91154015,2016-01-01
91154021,2016-01-01
91154023,2016-01-01
91154026,2016-01-01
91164100,2016-05-01
91164101,2016-05-01
91164102,2016-10-01
91174100,2017-01-01
92104215,2016-01-01
92124000,2016-09-01
92124001,2016-01-01
92124003,2016-01-01
92124011,2016-01-01
92124015,2016-01-01
92134001,2016-07-01
92144003,2016-01-01
92144007,2016-01-01
92144009,2016-01-01
92154006,2016-01-01
92154016,2016-01-01
92164004,2016-07-01
92164005,2016-01-01
92164100,2016-05-01
92164101,2016-02-01
92164102,2016-05-01
92164103,2016-05-01
92164104,2016-05-01
92164105,2016-06-01
92164106,2016-10-01
92164107,2016-10-01
92164108,2016-11-01
92164109,2016-11-01
92164110,2016-11-01
93124014,2016-01-01
93124015,2016-01-01
93124016,2016-01-01
93124017,2016-01-01
93124018,2016-01-01
93134013,2016-07-01
93134014,2016-07-01
93134015,2016-07-01
93134021,2016-07-01
93144000,2016-01-01
93144002,2016-01-01
93154000,2016-01-01
93154003,2016-05-01
93154007,2016-01-01
93154011,2016-01-01
93164100,2016-09-01
93164101,2016-05-01
93164102,2016-05-01
93164103,2016-11-01
93164104,2016-05-01
93164105,2016-09-01
93164106,2016-06-01
93164107,2016-06-01
93164108,2016-06-01
93164109,2016-06-01
93164110,2016-06-01
93164111,2016-10-01
93164112,2016-10-01
93164113,2016-10-01
93164114,2016-10-01
93164115,2016-10-01
93164116,2016-10-01
93164117,2016-10-01
93164118,2016-10-01
93164119,2016-10-01
94124001,2016-01-01
94134008,2016-07-01
94134009,2016-07-01
94134011,2016-07-01
94134012,2016-07-01
94144009,2016-01-01
94144010,2016-01-01
94144013,2016-01-01
94144014,2016-01-01
94144022,2016-01-01
94144027,2016-01-01
94144032,2016-01-01
94164000,2016-05-01
94164100,2016-05-01
94164101,2016-06-01
94164102,2016-10-01
94164103,2016-10-01
94164104,2016-10-01
94164105,2016-10-01
94164106,2016-11-01
94174100,2017-01-01
94174101,2017-01-01
95144038,2016-01-01
95144043,2016-01-01
95144044,2016-01-01
95144045,2016-01-01
95144046,2016-01-01
95144060,2016-01-01
95144062,2016-01-01
95144063,2016-01-01
95144064,2016-01-01
95144067,2016-01-01
95144072,2016-01-01
95154012,2016-01-01
95154013,2016-01-01
95154014,2016-01-01
95154015,2016-01-01
95154016,2016-01-01
95154017,2016-01-01
95154018,2016-01-01
95154019,2016-01-01
95154020,2016-01-01
95154021,2016-01-01
95154022,2016-01-01
95154023,2016-01-01
95154024,2016-01-01
95164100,2016-06-01
95164101,2016-11-01
95164102,2016-05-01
95164103,2016-05-01
95164104,2016-05-01
95164105,2016-05-01
95164106,2016-05-01
96154000,2016-01-01
96154001,2016-01-01
96154003,2016-01-01
96154006,2016-01-01
96154007,2016-01-01
96154013,2016-01-01
96154014,2016-01-01
96154015,2016-01-01
96154016,2016-01-01
96154017,2016-01-01
96154018,2016-01-01
96154019,2016-01-01
96154020,2016-01-01
96154021,2016-01-01
96154022,2016-01-01
96164100,2016-05-01
96164101,2016-05-01
96164102,2016-05-01
96164103,2016-05-01
96164104,2016-05-01
96164105,2016-05-01
96164106,2016-05-01
96164107,2016-05-01
96164108,2016-11-01
96164109,2016-05-01
96164110,2016-05-01
96164111,2016-05-01
96164112,2016-05-01
96164113,2016-05-01
96164114,2016-05-01
96164115,2016-05-01
96164116,2016-05-01
96164117,2016-05-01
96164118,2016-05-01
96164119,2016-05-01
97154001,2016-01-01
97164100,2016-05-01
97164101,2016-05-01
97164102,2016-05-01
97164103,2016-05-01
97164104,2016-05-01
97164105,2016-05-01
97164106,2016-05-01
97164107,2016-05-01
97164108,2016-05-01
97164109,2016-05-01
97164110,2016-05-01
97164111,2016-05-01
97164112,2016-05-01
97164113,2016-05-01
97164114,2016-05-01
97164115,2016-05-01
97164116,2016-05-01
97164117,2016-05-01
97164118,2016-05-01
97164119,2016-11-01
97164120,2016-05-01
